Name,Country,Age,Sex,Equipment,Division,Tested,BodyweightKg,WeightClassKg,Squat1Kg,Squat2Kg,Squat3Kg,Squat4Kg,Best3SquatKg,Bench1Kg,Bench2Kg,Bench3Kg,Bench4Kg,Best3BenchKg,Deadlift1Kg,Deadlift2Kg,Deadlift3Kg,Deadlift4Kg,Best3DeadliftKg,TotalKg,Place,Event
Aaron Sarnovsky,USA,32,M,Multi-ply,M_OEM_AWPC,Yes,81.5,82.5,282.5,-302.5,302.5,,302.5,-182.5,182.5,-200,,182.5,242.5,-260,-260,,242.5,727.5,1,SBD
Alan Ford,USA,51,M,Raw,M_MR_3_AWPC,Yes,81,82.5,,,,,,102.5,107.5,112.5,,112.5,,,,,,112.5,1,B
Alan Ford,USA,51,M,Raw,M_OR_AWPC,Yes,81,82.5,,,,,,102.5,107.5,112.5,,112.5,,,,,,112.5,1,B
Alex Gordon,USA,22,M,Wraps,M_OCR_AWPC,Yes,87.9,90,210,-227.5,-227.5,,210,140,145,150,,150,227.5,-245,245,,245,605,3,SBD
Alexey Bazhenov,Russia,39,M,Raw,M_OR_AWPC,Yes,89.1,90,220,235,245,,245,160,170,175,,175,270,-290,-290,,270,690,1,SBD
Aleksey Okunev,Russia,41,M,Raw,M_OR_AWPC,Yes,66.6,67.5,,,,,,130,140,-145,,140,,,,,,140,1,B
Aleksey Okunev,Russia,41,M,Raw,M_OR_AWPC,Yes,66.6,67.5,,,,,,,,,,,240,250,-255,,250,250,1,D
Aleksey Okunev,Russia,41,M,Wraps,M_OCR_AWPC,Yes,66.6,67.5,-220,,,,,,,,,,,,,,,,DQ,SBD
Allison Hazel,USA,23,F,Wraps,F_JCR_AWPC,Yes,70.95,75,122.5,132.5,142.5,,142.5,82.5,87.5,-92.5,,87.5,142.5,152.5,160,,160,390,1,SBD
Allyson Serbick,USA,17,F,Raw,F_TR_2_AWPC,Yes,62.4,67.5,80,85,90,,90,42.5,47.5,50,,50,95,105,112.5,,112.5,252.5,1,SBD
Amelia Volkert,USA,22,F,Raw,F_JR_AWPC,Yes,56,56,82.5,92.5,-97.5,,92.5,52.5,57.5,-60,,57.5,102.5,110,115,,115,265,1,SBD
Andrew Carroll,USA,33,M,Raw,M_SR_AWPC,Yes,79.4,82.5,137.5,142.5,-147.5,,142.5,100,105,110,,110,185,197.5,205,,205,457.5,2,SBD
Andrew Carroll,USA,33,M,Raw,M_OR_AWPC,Yes,79.4,82.5,137.5,142.5,-147.5,,142.5,100,105,110,,110,185,197.5,205,,205,457.5,3,SBD
Andrey Pavlov #9,Moldova,23,M,Raw,M_JR_AWPC,Yes,80.9,82.5,180,190,197.5,,197.5,145,-150,150,,150,210,220,230,-240,230,577.5,1,SBD
Angela Ikner,USA,37,F,Raw,F_SR_AWPC,Yes,90,90,120,132.5,137.5,,137.5,62.5,70,-72.5,,70,132.5,147.5,-155,,147.5,355,1,SBD
Angela Ikner,USA,37,F,Raw,F_OR_AWPC,Yes,90,90,120,132.5,137.5,,137.5,62.5,70,-72.5,,70,132.5,147.5,-155,,147.5,355,1,SBD
Angelo Fortino,USA,24,M,Raw,M_OR_AWPC,Yes,78.6,82.5,222.5,235,-247.5,,235,142.5,150,-157.5,,150,277.5,292.5,307.5,,307.5,692.5,1,SBD
Annika Parssinen,USA,21,F,Wraps,F_JCR_AWPC,Yes,69.95,75,130,135,140,,140,62.5,65,67.5,,67.5,135,140,145,,145,352.5,2,SBD
Arthur Little,USA,62,M,Raw,M_MR_5_AWPC,Yes,71.4,75,,,,,,,,,,,-210,210,230,,230,230,1,D
Arthur Little,USA,62,M,Raw,M_OR_AWPC,Yes,71.4,75,,,,,,,,,,,-210,210,230,,230,230,1,D
Ashley Porter,USA,31,F,Raw,F_OR_AWPC,Yes,74.55,75,107.5,115,-122.5,,115,55,57.5,60,,60,142.5,152.5,-160,,152.5,327.5,1,SBD
Ashley Sell,USA,22,F,Raw,F_JR_AWPC,Yes,67.3,67.5,-105,112.5,-120,,112.5,57.5,60,-65,,60,115,125,-132.5,,125,297.5,1,SBD
Austin Elpers,USA,21,M,Wraps,M_JCR_AWPC,Yes,67.3,67.5,205,217.5,222.5,,222.5,115,125,127.5,,127.5,207.5,217.5,230,-240,230,580,1,SBD
Ayrat Sufiyanov,Russia,33,M,Single-ply,M_OES_AWPC,Yes,66.6,67.5,,,,,,195,-202.5,-202.5,,195,,,,,,195,1,B
Benjamin Pauza,USA,19,M,Raw,M_TR_3_AWPC,Yes,81.6,82.5,185,190,-195,,190,-135,135,-137.5,,135,205,215,227.5,,227.5,552.5,1,SBD
Beth Bomia,USA,48,F,Raw,F_MR_2_AWPC,Yes,85.7,90,-107.5,107.5,115,,115,62.5,-67.5,-67.5,,62.5,127.5,137.5,-142.5,,137.5,315,1,SBD
Bill Busby,USA,65,M,Raw,M_MR_6_AWPC,Yes,87.7,90,,,,,,115,125,-137.5,,125,,,,,,125,1,B
Bill Busby,USA,65,M,Raw,M_MR_6_AWPC,Yes,87.7,90,,,,,,,,,,,210.5,,,,210.5,210.5,1,D
Billy Beard,USA,38,M,Raw,M_OR_AWPC,Yes,88.1,90,,,,,,,,,,,240,255,-270,,255,255,1,D
Body Body,USA,43,M,Raw,M_MR_1_AWPC,Yes,87.4,90,,,,,,192.5,-202.5,-202.5,,192.5,,,,,,192.5,1,B
Body Body,USA,43,M,Raw,M_OR_AWPC,Yes,87.4,90,,,,,,192.5,-202.5,-202.5,,192.5,,,,,,192.5,2,B
Brandon Gregrow,USA,27,M,Raw,M_OR_AWPC,Yes,89.6,90,200,-215,-215,,200,155,-167.5,-167.5,,155,220,230,-237.5,,230,585,3,SBD
Brandon Mitzel,USA,23,M,Single-ply,M_JES_AWPC,Yes,89.7,90,265,-275,-275,,265,-155,155,-170,,155,260,-277.5,-277.5,,260,680,1,SBD
Briana Maison,USA,26,F,Wraps,F_OCR_AWPC,Yes,51.7,52,95,-100,100,100.5,100,45,-47.5,,,45,97.5,102.5,105,-111,105,250,1,SBD
Bryan Nee,USA,27,M,Raw,M_OR_AWPC,Yes,97.5,100,257.5,270,272.5,,272.5,127.5,140,147.5,,147.5,260,270,-277.5,,270,690,2,SBD
Bud Leinenger,USA,55,M,Raw,M_MR_4_AWPC,Yes,122.4,125,192.5,,,,192.5,90,,,,90,192.5,215,-250,,215,497.5,1,SBD
Calvin Seith,USA,29,M,Wraps,M_OCR_AWPC,Yes,87.8,90,185,220,227.5,,227.5,127.5,-137.5,137.5,,137.5,205,227.5,-232.5,,227.5,592.5,4,SBD
Charlie Stevens #1,USA,46,F,Wraps,F_MCR_2_AWPC,Yes,81,82.5,125,137.5,-145,,137.5,65,-75,75,,75,142.5,152.5,160,168,160,372.5,1,SBD
Chris Williams #1,USA,58,M,Wraps,M_MCR_4_AWPC,Yes,88.3,90,92.5,-105,115,,115,102.5,110,115,,115,147.5,160,170,-172.5,170,400,1,SBD
Chris Williams #1,USA,58,M,Raw,M_MR_4_AWPC,Yes,88.3,90,92.5,-105,115,,115,102.5,110,115,,115,147.5,160,170,-172.5,170,400,1,SBD
Chris Williams #1,USA,58,M,Raw,M_MR_4_AWPC,Yes,88.4,90,,,,,,102.5,110,112.5,,112.5,,,,,,112.5,1,B
Chris Williams #1,USA,58,M,Raw,M_OR_AWPC,Yes,88.4,90,,,,,,102.5,110,112.5,,112.5,,,,,,112.5,3,B
Chris Williams #1,USA,58,M,Raw,M_MR_4_AWPC,Yes,88.4,90,,,,,,,,,,,147.5,157.5,162.5,,162.5,162.5,1,D
Chris Williams #1,USA,58,M,Raw,M_OR_AWPC,Yes,88.4,90,,,,,,,,,,,147.5,157.5,162.5,,162.5,162.5,2,D
Christina Candelora,USA,33,F,Raw,F_OR_AWPC,Yes,66.65,67.5,132.5,137.5,142.5,,142.5,57.5,-62.5,-62.5,,57.5,137.5,145,152.5,,152.5,352.5,1,SBD
CJ Reed,USA,37,M,Raw,M_SR_AWPC,Yes,81.7,82.5,157.5,165,170,,170,137.5,142.5,-147.5,,142.5,210,217.5,227.5,,227.5,540,1,SBD
Cleveland Rose,USA,37,M,Raw,M_OR_AWPC,Yes,98.1,100,172.5,182.5,210,,210,105,115,-132.5,,115,260,-275,-275,,260,585,4,SBD
Dan Oberman,USA,51,M,Wraps,M_MCR_3_AWPC,Yes,89.5,90,162.5,175,185,,185,125,132.5,137.5,,137.5,222.5,237.5,247.5,,247.5,570,1,SBD
Dan Zager,USA,65,M,Multi-ply,M_MEM_6_AWPC,Yes,66.2,67.5,-175,182.5,-190,,182.5,67.5,75,82.5,,82.5,180,-190,190,,190,455,1,SBD
Daniel Thiel,USA,30,M,Wraps,M_OCR_AWPC,Yes,73.7,75,,,,,,,,,,,,,,,,,DQ,SBD
Darci Molina,USA,25,F,Wraps,F_OCR_AWPC,Yes,73,75,157.5,162.5,-167.5,,162.5,92.5,-97.5,-97.5,,92.5,157.5,165,-170,,165,420,1,SBD
Darren Hodges,USA,46,M,Multi-ply,M_MEM_2_AWPC,Yes,120.7,125,-170,170,182.5,,182.5,85,92.5,-102.5,,92.5,185,195,205,,205,480,1,SBD
David Athey,USA,23,M,Single-ply,M_JES_AWPC,Yes,80.1,82.5,255,272.5,280,,280,170,177.5,-187.5,,177.5,-242.5,242.5,255,-268,255,712.5,1,SBD
David Burshtan,USA,55,M,Raw,M_MR_4_AWPC,Yes,99.6,100,137.5,152.5,160,,160,110,120,122.5,,122.5,155,175,182.5,,182.5,465,2,SBD
Dawn Maroscher,USA,49,F,Raw,F_MR_2_AWPC,Yes,65.85,67.5,110,120.5,122.5,,122.5,85,92.5,-97.5,,92.5,140,155,165.5,-172.5,165.5,380.5,1,SBD
Denis Rodyakin,Russia,29,M,Raw,M_OR_AWPC,Yes,108.7,110,280,-300,300,,300,-180,185,190,,190,290,310,-330,,310,800,1,SBD
Derek Roblyer,USA,29,M,Raw,M_OR_AWPC,Yes,97.6,100,192.5,207.5,-227.5,,207.5,170,177.5,180,,180,287.5,302.5,305,,305,692.5,1,SBD
Don Powers,USA,44,M,Multi-ply,M_MEM_1_AWPC,Yes,109.3,110,237.5,-250,250,,250,175,185,-192.5,,185,247.5,-260,,,247.5,682.5,1,SBD
Donovin Reyes,USA,18,M,Raw,M_OR_AWPC,Yes,89.5,90,217.5,237.5,-250,,237.5,140,147.5,-155,,147.5,235,252.5,-277.5,,252.5,637.5,2,SBD
Doug Petersen,USA,62,M,Raw,M_MR_5_AWPC,Yes,74.8,75,165,177.5,182.5,,182.5,110,115,118,,118,195,210,-215,,210,510.5,1,SBD
Dylan Clare,USA,20,M,Raw,M_JR_AWPC,Yes,97.7,100,195,205,-220,,205,147.5,152.5,-165,,152.5,192.5,207.5,-227.5,,207.5,565,1,SBD
Elena Piskovaia,Russia,47,F,Raw,F_MR_2_AWPC,Yes,74,75,,,,,,60,65,67.5,,67.5,,,,,,67.5,1,B
Eric Hubbs,USA,53,M,Multi-ply,M_MEM_3_AWPC,Yes,130.1,140,,,,,,102.5,-290,-290,,102.5,,,,,,102.5,1,B
Eric Hubbs,USA,53,M,Multi-ply,M_OEM_AWPC,Yes,130.1,140,,,,,,102.5,-290,-290,,102.5,,,,,,102.5,1,B
Erin Zemanovic,USA,47,F,Wraps,F_MCR_2_AWPC,Yes,73,75,107.5,115,125,,125,60,62.5,-65,,62.5,117.5,125,-132.5,,125,312.5,1,SBD
Floyd Yager,USA,50,M,Raw,M_MR_3_AWPC,Yes,134.1,140,202.5,215,-227.5,,215,135,145,-147.5,,145,237.5,250,-255,,250,610,1,SBD
Forrest Grivetti,USA,22,M,Multi-ply,M_JEM_AWPC,Yes,82.4,82.5,,,,,,200,212.5,220.5,222.5,220.5,,,,,,220.5,1,B
Cliff Shipley,USA,58,M,Single-ply,M_MES_4_AWPC,Yes,73.9,75,-112.5,112.5,,,112.5,90,96,97.5,100,97.5,145,185,-205,,185,395,1,SBD
Cliff Shipley,USA,58,M,Wraps,M_MCR_4_AWPC,Yes,73.9,75,-112.5,112.5,,,112.5,90,96,97.5,100,97.5,145,185,-205,,185,395,1,SBD
Garrin Clark,USA,48,M,Raw,M_MR_2_AWPC,Yes,75,75,155,165,167.5,,167.5,97.5,100,-102.5,,100,205,215,-225,,215,482.5,2,SBD
Gary Dingle,USA,66,M,Raw,M_MR_6_AWPC,Yes,92.6,100,,,,,,,,,,,-265,-265,-265,,,,DQ,D
GiHo Jeong,USA,16,M,Raw,M_TR_2_AWPC,Yes,75,75,197.5,210,-212.5,,210,97.5,105,-110,,105,192.5,200,202.5,,202.5,517.5,1,SBD
Greg Zweig,USA,58,M,Raw,M_MR_4_AWPC,Yes,81.4,82.5,177.5,187.5,192.5,,192.5,130,135,,,135,232.5,247.5,-258,,247.5,575,1,SBD
Guillermo Blanco,USA,27,M,Wraps,M_OCR_AWPC,Yes,98.6,100,265,280,295,,295,147.5,-160,167.5,,167.5,230,247.5,-265,,247.5,710,2,SBD
Heather Regnier,USA,41,F,Raw,F_OR_AWPC,Yes,55.8,56,100,110,-120,,110,52.5,57.5,-60,,57.5,115,122.5,130,,130,297.5,1,SBD
Howard Penrose,USA,51,M,Multi-ply,M_MEM_3_AWPC,Yes,152.7,140+,,,,,,230,240.5,-245,,240.5,,,,,,240.5,1,B
Humberto Sanchez,USA,42,M,Raw,M_MR_1_AWPC,Yes,99.1,100,,,,,,160,170,172.5,,172.5,,,,,,172.5,1,B
Humberto Sanchez,USA,42,M,Raw,M_MR_1_AWPC,Yes,99.1,100,,,,,,,,,,,245,257.5,-260,,257.5,257.5,1,D
Hunter Koller,USA,17,M,Raw,M_TR_2_AWPC,Yes,74.9,75,142.5,147.5,-152.5,,147.5,107.5,115,-122.5,,115,160,185,190,,190,452.5,2,SBD
Ian Scott,USA,80,M,Raw,M_MR_9_AWPC,Yes,80.1,82.5,,,,,,-107.5,107.5,110,,110,,,,,,110,1,B
Ian Scott,USA,80,M,Raw,M_MR_9_AWPC,Yes,80.1,82.5,,,,,,,,,,,100,105,110,,110,110,1,D
Igor Usachev,Russia,52,M,Raw,M_MR_3_AWPC,Yes,95.5,100,,,,,,140,-150,-150,,140,,,,,,140,1,B
Igor Usachev,Russia,52,M,Raw,M_OR_AWPC,Yes,95.5,100,,,,,,140,-150,-150,,140,,,,,,140,1,B
Igor Usachev,Russia,52,M,Raw,M_MR_3_AWPC,Yes,95.5,100,,,,,,,,,,,190,200,212.5,,212.5,212.5,1,D
Igor Usachev,Russia,52,M,Raw,M_OR_AWPC,Yes,95.5,100,,,,,,,,,,,190,200,212.5,,212.5,212.5,1,D
Isaac Shaw,USA,19,M,Raw,M_TR_3_AWPC,Yes,78,82.5,125,145,150,,150,107.5,112.5,-117.5,,112.5,165,175,182.5,,182.5,445,2,SBD
Isabel Figueroa,USA,14,F,Raw,F_TR_1_AWPC,Yes,102.35,90+,142.5,150,165,,165,70,80,-85,,80,145,155,165,,165,410,1,SBD
Isabel Figueroa,USA,14,F,Wraps,F_OCR_AWPC,Yes,102.35,90+,142.5,150,165,,165,70,80,-85,,80,145,155,165,,165,410,2,SBD
James Briggs,USA,58,M,Raw,M_MR_4_AWPC,Yes,97.9,100,,,,,,125,132.5,-140,,132.5,,,,,,132.5,1,B
James Briggs,USA,58,M,Raw,M_OR_AWPC,Yes,97.9,100,,,,,,125,132.5,-140,,132.5,,,,,,132.5,2,B
James Jeurink,USA,64,M,Multi-ply,M_MEM_5_AWPC,Yes,91.4,100,,,,,,,,,,,210,,-237.5,,210,210,1,D
James Spencer,USA,62,M,Raw,M_MR_5_AWPC,Yes,74.1,75,,,,,,95,100,-107.5,,100,,,,,,100,1,B
James Spencer,USA,62,M,Raw,M_MR_5_AWPC,Yes,74.1,75,,,,,,,,,,,110,120,-137.5,,120,120,2,D
James Williams #9,USA,46,M,Raw,M_MR_2_AWPC,Yes,74.3,75,165,175,-182.5,,175,-115,115,-120,,115,187.5,195,200,,200,490,1,SBD
Jan Hitchcock,UK,50,M,Raw,M_MR_3_AWPC,Yes,95.9,100,175,-195,210,,210,145,160,172.5,,172.5,175,195,210,,210,592.5,1,SBD
Janice Looney,USA,48,F,Raw,F_MR_2_AWPC,Yes,64.65,67.5,-80,82.5,-87.5,,82.5,47.5,-50,50,,50,125,130,-137.5,,130,262.5,2,SBD
Janice Looney,USA,48,F,Raw,F_MR_2_AWPC,Yes,64.6,67.5,,,,,,,,,,,125,130,137.5,,137.5,137.5,1,D
Jason Cook #1,Canada,34,M,Multi-ply,M_OEM_AWPC,Yes,111.4,125,-375,375,-400,,375,235,247.5,-257.5,,247.5,-290,290,320,,320,942.5,1,SBD
Jeff Arioli,USA,51,M,Wraps,M_MCR_3_AWPC,Yes,109.1,110,227.5,247.5,260,,260,-185,185,-192.5,,185,220,235,-242.5,,235,680,1,SBD
Jeff Arioli,USA,51,M,Raw,M_MR_3_AWPC,Yes,109.6,110,,,,,,,,,,,185,,,,185,185,1,D
Jeff Arioli,USA,51,M,Raw,M_OR_AWPC,Yes,109.6,110,,,,,,,,,,,185,,,,185,185,1,D
Jeff Pietka,USA,57,M,Raw,M_MR_4_AWPC,Yes,97.7,100,152.5,162.5,170,,170,120,125,127.5,,127.5,160,167.5,172.5,,172.5,470,1,SBD
Jeffery Campbell,Canada,16,M,Wraps,M_TCR_2_AWPC,Yes,91.7,100,185,200,210,,210,102.5,110,-120,,110,190,205,217.5,225,217.5,537.5,1,SBD
Jeffrey Calderone,USA,27,M,Raw,M_OR_AWPC,Yes,108.4,110,220,240,-247.5,,240,-130,137.5,-145,,137.5,257.5,267.5,-277.5,,267.5,645,3,SBD
Jeffrey Orr,USA,62,M,Multi-ply,M_MEM_5_AWPC,Yes,96.4,100,-262.5,-262.5,-262.5,,,,,,,,,,,,,,DQ,SBD
Jenna Marcinkowski,USA,22,F,Wraps,F_JCR_AWPC,Yes,80.15,82.5,137.5,147.5,150,,150,-80,82.5,85,,85,145,155,165,,165,400,2,SBD
Jenna Marcinkowski,USA,22,F,Wraps,F_OCR_AWPC,Yes,80.15,82.5,137.5,147.5,150,,150,-80,82.5,85,,85,145,155,165,,165,400,2,SBD
Jennifer Gimmell,USA,35,F,Multi-ply,F_OEM_AWPC,Yes,89.95,90,212.5,235,-245,,235,135,152.5,-155,,152.5,167.5,182.5,-187.5,,182.5,570,1,SBD
Jered Moreland,USA,17,M,Raw,M_TR_2_AWPC,Yes,117.3,125,-217.5,230,-235,,230,147.5,155,-160,,155,272.5,-280,,,272.5,657.5,1,SBD
Jeron Roberson,USA,35,M,Raw,M_SR_AWPC,Yes,59.9,60,,,,,,125,130.5,-132.5,,130.5,,,,,,130.5,1,B
Jeron Roberson,USA,35,M,Raw,M_OR_AWPC,Yes,59.9,60,,,,,,125,130.5,-132.5,,130.5,,,,,,130.5,1,B
Jeron Roberson,USA,35,M,Raw,M_SR_AWPC,Yes,59.9,60,,,,,,,,,,,147.5,160,167.5,,167.5,167.5,1,D
Jeron Roberson,USA,35,M,Raw,M_OR_AWPC,Yes,59.9,60,,,,,,,,,,,147.5,160,167.5,,167.5,167.5,1,D
Jerry Adkins,USA,43,M,Wraps,M_MCR_1_AWPC,Yes,109.5,110,207.5,222.5,-233,,222.5,110,-122.5,-127.5,,110,207.5,220,-230,,220,552.5,1,SBD
Jessica Vertregt,USA,29,F,Raw,F_OR_AWPC,Yes,66.1,67.5,117.5,127.5,-132.5,,127.5,60,-65,-65,,60,140,147.5,-162.5,,147.5,335,2,SBD
Jimmy Bishop #1,USA,69,M,Multi-ply,M_MEM_6_AWPC,Yes,95.8,100,175,192.5,210,,210,95,-107.5,-107.5,,95,175,195,,,195,500,1,SBD
Jimmy Bishop #1,USA,69,M,Single-ply,M_MES_6_AWPC,Yes,95.8,100,175,192.5,210,,210,95,-107.5,-107.5,,95,175,195,,,195,500,2,SBD
Joan Cooper,USA,57,F,Raw,F_MR_4_AWPC,Yes,59.25,60,60,65,67.5,,67.5,45,-47.5,47.5,,47.5,110,112.5,-115,,112.5,227.5,1,SBD
John Brolley,USA,55,M,Multi-ply,M_MEM_4_AWPC,Yes,96.7,100,,,,,,,,,,,200,210,,,210,210,1,D
Jonathan Chunn,USA,29,M,Wraps,M_OCR_AWPC,Yes,87,90,280,297.5,-302.5,,297.5,130,142.5,152.5,,152.5,295,-312.5,,,295,745,1,SBD
Jordan Sprague,USA,24,M,Wraps,M_OCR_AWPC,Yes,118.8,125,260,280,290,,290,145,155,165,,165,275,-300,-302.5,,275,730,2,SBD
Joseph Cornish,USA,54,M,Wraps,M_MCR_3_AWPC,Yes,73.8,75,162.5,177.5,192.5,,192.5,97.5,110,117.5,,117.5,182.5,200,212.5,,212.5,522.5,1,SBD
Josh Ingram #1,UK,24,M,Raw,M_OR_AWPC,Yes,81.8,82.5,200,210,-215,,210,130,140,145,,145,230,250,255,,255,610,2,SBD
Julian McKerrow,UK,27,M,Wraps,M_OCR_AWPC,Yes,123.2,125,235,250,260,,260,180,-191,-191,,180,305,320,-330,,320,760,1,SBD
Julie Barnes,USA,58,F,Raw,F_MR_4_AWPC,Yes,65.3,67.5,45,52.5,55,,55,32.5,37.5,-40,,37.5,70,80,87.5,,87.5,180,1,SBD
Katie Murawski,USA,28,F,Raw,F_OR_AWPC,Yes,80.65,82.5,-110,110,-132.5,,110,47.5,-55,55,,55,130,150,165,,165,330,1,SBD
Katie Aretos,USA,35,F,Raw,F_SR_AWPC,Yes,58.7,60,87.5,92.5,-95,,92.5,55,57.5,-60,,57.5,102.5,105,-107.5,,105,255,1,SBD
Katie Aretos,USA,35,F,Raw,F_OR_AWPC,Yes,58.7,60,87.5,92.5,-95,,92.5,55,57.5,-60,,57.5,102.5,105,-107.5,,105,255,2,SBD
Kenny Blackmon,USA,47,M,Raw,M_MR_2_AWPC,Yes,119.1,125,,,,,,200,210,-215,,210,,,,,,210,1,B
Kenny Blackmon,USA,47,M,Raw,M_OR_AWPC,Yes,119.1,125,,,,,,200,210,-215,,210,,,,,,210,1,B
Kevin Schroeder,USA,25,M,Raw,M_OR_AWPC,Yes,195.8,140+,,,,,,192.5,202.5,-207.5,,202.5,,,,,,202.5,1,B
Kirby Anderson,USA,81,M,Multi-ply,M_MEM_9_AWPC,Yes,63.9,67.5,100,-125,-135,,100,75,-82.5,-82.5,,75,95,110,117.5,,117.5,292.5,1,SBD
Lawrence Malcheff,USA,44,M,Wraps,M_MCR_1_AWPC,Yes,167.4,140+,220,237.5,242.5,,242.5,125,132.5,140,,140,255,265,-270,,265,647.5,1,SBD
Linda Zenzen,USA,62,F,Multi-ply,F_MEM_5_AWPC,Yes,91.6,90+,,,,,,47.5,52.5,-57.5,,52.5,,,,,,52.5,1,B
Lindsay Crosby,USA,25,F,Wraps,F_OCR_AWPC,Yes,55.55,56,112.5,117.5,125,,125,65,70,-72.5,,70,142.5,155,165,,165,360,1,SBD
Lucy Galpin,USA,62,F,Raw,F_MR_5_AWPC,Yes,71.9,75,55,-60,-62.5,,55,37.5,40,42.5,,42.5,97.5,102.5,107.5,110,107.5,205,1,SBD
Martin Adlen,USA,25,M,Raw,M_OR_AWPC,Yes,88.6,90,195,202.5,-207.5,,202.5,125,135,,,135,212.5,-227.5,-227.5,,212.5,550,4,SBD
Mary Cruse,USA,62,F,Raw,F_MR_5_AWPC,Yes,109.5,90+,-37.5,-47.5,-47.5,,,42.5,47.5,-50,,47.5,70,82.5,92.5,,92.5,,DQ,SBD
Meredith Krafcheck,USA,27,F,Wraps,F_OCR_AWPC,Yes,74.05,75,80,90,-100,,90,45,50,-57.5,,50,105,112.5,122.5,,122.5,262.5,4,SBD
Michael Casale,USA,70,M,Raw,M_MR_7_AWPC,Yes,57.9,60,,,,,,82.5,85,87.5,,87.5,,,,,,87.5,1,B
Michael Pascarella,USA,52,M,Multi-ply,M_MEM_3_AWPC,Yes,126.2,140,275,290,305,,305,190,197.5,-205,,197.5,235,-245,,,235,737.5,1,SBD
Michael Sell,USA,23,M,Wraps,M_JCR_AWPC,Yes,99.2,100,270,292.5,-297.5,,292.5,160,170,-177.5,,170,285,310,-318,,310,772.5,1,SBD
Michael Shealy,USA,65,M,Single-ply,M_MES_6_AWPC,Yes,99.6,100,162.5,172.5,185,,185,122.5,132.5,-137.5,,132.5,162.5,177.5,187.5,,187.5,505,1,SBD
Michael Shealy,USA,65,M,Wraps,M_MCR_6_AWPC,Yes,99.6,100,162.5,172.5,185,,185,122.5,132.5,-137.5,,132.5,162.5,177.5,187.5,,187.5,505,1,SBD
Mike Krieger,USA,36,M,Raw,M_SR_AWPC,Yes,89.1,90,,,,,,145,147.5,-152.5,,147.5,,,,,,147.5,1,B
Mike Krieger,USA,36,M,Raw,M_SR_AWPC,Yes,89.1,90,,,,,,,,,,,187.5,195,-205,,195,195,1,D
Mike Wider,USA,70,M,Raw,M_MR_7_AWPC,Yes,66.2,67.5,107.5,117.5,122.5,,122.5,65,70,75,,75,165,182.5,190,,190,387.5,1,SBD
Mindy Fillmore,USA,46,F,Raw,F_MR_2_AWPC,Yes,89.3,90,,,,,,55,62.5,-67.5,,62.5,,,,,,62.5,1,B
Mindy Fillmore,USA,46,F,Raw,F_MR_2_AWPC,Yes,89.3,90,,,,,,,,,,,100,107.5,112.5,,112.5,112.5,1,D
Mindy Schwartz,USA,61,F,Raw,F_MR_5_AWPC,Yes,94,90+,77.5,82.5,87.5,92.5,87.5,55,60,-65,,60,122.5,127.5,132.5,137.5,132.5,280,1,SBD
Nikki Merson,USA,45,F,Wraps,F_MCR_2_AWPC,Yes,67.5,67.5,95,107.5,112.5,,112.5,62.5,67.5,-70,,67.5,120,132.5,-137.5,,132.5,312.5,1,SBD
Nikki Merson,USA,45,F,Wraps,F_OCR_AWPC,Yes,67.5,67.5,95,107.5,112.5,,112.5,62.5,67.5,70,,70,120,132.5,-137.5,,132.5,315,1,SBD
Noah Phillips #2,USA,23,M,Wraps,M_JCR_AWPC,Yes,55.5,56,152.5,170,-172.5,,170,85,87.5,-92.5,,87.5,155,-175,-175,,155,412.5,1,SBD
Oleg Filimonov,Russia,30,M,Raw,M_OR_AWPC,Yes,89.4,90,,,,,,212.5,222.5,225,-227.5,225,,,,,,225,1,B
Peter Katsuleas,USA,18,M,Wraps,M_TCR_3_AWPC,Yes,87.5,90,-227.5,237.5,-250,,237.5,137.5,147.5,155,,155,227.5,237.5,245,,245,637.5,1,SBD
Rachel Nutter,USA,46,F,Multi-ply,F_MEM_2_AWPC,Yes,145.5,90+,,,,,,157.5,172.5,182.5,-187.5,182.5,,,,,,182.5,1,B
Ramil Shakirov,Russia,33,M,Raw,M_OR_AWPC,Yes,87.4,90,,,,,,,,,,,180,200,210,,210,210,2,D
Ricco Bertoletti,USA,18,M,Raw,M_TR_3_AWPC,Yes,107.6,110,255,270,275,,275,165,-172.5,,,165,240,,,,240,680,1,SBD
Richard Flores #1,USA,79,M,Multi-ply,M_MEM_8_AWPC,Yes,70.8,75,130,-155,162.5,,162.5,60,67.5,-70,,67.5,160,182.5,192.5,,192.5,422.5,1,SBD
Rich Kelly,USA,63,M,Single-ply,M_MES_5_AWPC,Yes,190,140+,,,,,,-185,-185,185,-192.5,185,,,,,,185,1,B
Rich Kelly,USA,63,M,Raw,M_MR_5_AWPC,Yes,98.6,100,,,,,,,,,,,180,187.5,-195,,187.5,187.5,1,D
Rita Carlsson,USA,65,F,Multi-ply,F_MEM_6_AWPC,Yes,59.95,60,175,-187.5,187.5,,187.5,55,57.5,-60,,57.5,157.5,165,172.5,-175,172.5,417.5,1,SBD
Robert Bain,USA,35,M,Raw,M_SR_AWPC,Yes,107.6,110,275,-287.5,-287.5,,275,150,157.5,-162.5,,157.5,-300,300,,,300,732.5,1,SBD
Robert Bain,USA,35,M,Raw,M_OR_AWPC,Yes,107.6,110,275,-287.5,-287.5,,275,150,157.5,-162.5,,157.5,-300,300,,,300,732.5,2,SBD
Robert Bierschbach,USA,49,M,Single-ply,M_MES_2_AWPC,Yes,131.4,140,242.5,-257.5,272.5,,272.5,187.5,-195,,,187.5,235,,,,235,695,1,SBD
Rochelle Longstreth,USA,16,F,Raw,F_TR_2_AWPC,Yes,81.65,82.5,75,92.5,-102.5,,92.5,47.5,50,52.5,55,52.5,110,120,130,-140,130,275,1,SBD
Ron Panther,USA,66,M,Raw,M_MR_6_AWPC,Yes,72.6,75,,,,,,85,97.5,-100,,97.5,,,,,,97.5,1,B
Ron Panther,USA,66,M,Raw,M_MR_6_AWPC,Yes,72.6,75,,,,,,,,,,,137.5,147.5,152.5,155,152.5,152.5,1,D
Sally Griffen,USA,66,F,Raw,F_MR_6_AWPC,Yes,82,82.5,60,72.5,-80,,72.5,37.5,45,-47.5,,45,90,100,107.5,-112.5,107.5,225,1,SBD
Samantha Cichy,USA,24,F,Wraps,F_OCR_AWPC,Yes,89,90,117.5,-125,125,,125,67.5,-72.5,-72.5,,67.5,155,162.5,167.5,,167.5,360,1,SBD
Sammy Greco,USA,46,M,Raw,M_MR_2_AWPC,Yes,66.5,67.5,142.5,150,-160,,150,92.5,100,-102.5,,100,192.5,202.5,-207.5,,202.5,452.5,1,SBD
Scott Campbell,Canada,32,M,Wraps,M_OCR_AWPC,Yes,87.2,90,192.5,207.5,-215,,207.5,142.5,-152.5,-152.5,,142.5,240,252.5,255,,255,605,2,SBD
Scott Govier,UK,26,M,Wraps,M_OCR_AWPC,Yes,73.9,75,195,207.5,220,,220,122.5,130,-137.5,,130,210,220,-230,,220,570,1,SBD
Scott Kuderick,USA,43,M,Multi-ply,M_OEM_AWPC,Yes,89.8,90,305,-320,-320,,305,165,185,192.5,,192.5,227.5,245,-260,,245,742.5,1,SBD
Scott Sutherlin,USA,45,M,Wraps,M_MCR_2_AWPC,Yes,113,125,230,250,272.5,,272.5,142.5,160,-165,,160,220,240,-250,,240,672.5,1,SBD
Sebastian Ortiz,USA,17,M,Raw,M_TR_2_AWPC,Yes,56.9,60,127.5,132.5,-145,,132.5,92.5,97.5,-100,,97.5,165,170,172.5,,172.5,402.5,1,SBD
Sergei Terentev,Russia,25,M,Raw,M_OR_AWPC,Yes,96.1,100,200,-210,,,200,165,-175,-175,,165,250,265,280,,280,645,3,SBD
Shaun Strauther,USA,28,M,Raw,M_OR_AWPC,Yes,71.4,75,,,,,,175,-182.5,-182.5,,175,,,,,,175,1,B
Shorook Quran,USA,29,F,Raw,F_OR_AWPC,Yes,58.85,60,97.5,105,110,,110,45,50,-52.5,,50,120,127.5,132.5,,132.5,292.5,1,SBD
Siera Brown,USA,30,F,Wraps,F_OCR_AWPC,Yes,72.55,75,112.5,125,133,,133,62.5,75,-80,,75,125,-135,145,,145,353,2,SBD
Stacy Hawkins #1,USA,31,F,Raw,F_OR_AWPC,Yes,121.95,90+,142.5,155,-177.5,,155,82.5,95,97.5,,97.5,147.5,165,177.5,,177.5,430,1,SBD
Stephanie DeMarco,USA,26,F,Raw,F_OR_AWPC,Yes,80.85,82.5,110,-125,-125,,110,47.5,52.5,-57.5,,52.5,125,142.5,-170,,142.5,305,2,SBD
Steve Boring,USA,29,M,Raw,M_OR_AWPC,Yes,106.7,110,,,,,,182.5,190,-195,,190,,,,,,190,1,B
Steve Pate,USA,61,M,Raw,M_MR_5_AWPC,Yes,83.8,90,,,,,,125,135,-137.5,,135,,,,,,135,1,B
Tatiana Kobeleva,Russia,43,F,Raw,F_MR_1_AWPC,Yes,80.5,82.5,,,,,,,,,,,100,110,117.5,,117.5,117.5,1,D
Tatum Susberry,USA,30,M,Wraps,M_OCR_AWPC,Yes,135.6,140,245,255,-260,,255,177.5,187.5,195,,195,230,237.5,257.5,,257.5,707.5,1,SBD
Taylor Longstreth,USA,20,F,Wraps,F_JCR_AWPC,Yes,73.4,75,97.5,105,-110,,105,50,-52.5,52.5,,52.5,102.5,112.5,117.5,,117.5,275,3,SBD
Tera Kinnane,USA,41,F,Wraps,F_MCR_1_AWPC,Yes,103,90+,157.5,175,-185,,175,82.5,87.5,90,-92.5,90,157.5,170,175,,175,440,1,SBD
Tera Kinnane,USA,41,F,Wraps,F_OCR_AWPC,Yes,103,90+,157.5,175,-185,,175,82.5,87.5,90,-92.5,90,157.5,170,175,,175,440,1,SBD
Terry Davis,USA,61,M,Multi-ply,M_MEM_5_AWPC,Yes,120.9,125,320,340,-365,,340,-215,215,-227.5,,215,232.5,250,262.5,,262.5,817.5,1,SBD
Tina Enners,USA,48,F,Wraps,F_MCR_2_AWPC,Yes,103.85,90+,95,102.5,107.5,,107.5,47.5,53,55,,55,130,137.5,142.5,,142.5,305,1,SBD
TJ Kropp,USA,26,M,Wraps,M_OCR_AWPC,Yes,98.9,100,245,-265,265,,265,197.5,-205,-205,,197.5,292.5,300,-308,,300,762.5,1,SBD
Tom McNeill,USA,35,M,Wraps,M_OCR_AWPC,Yes,82.4,82.5,240,-252.5,-260,,240,145,155,-162.5,,155,260,275,-287.5,,275,670,1,SBD
Tyi Richards,USA,22,F,Wraps,F_JCR_AWPC,Yes,82.5,82.5,152.5,-168,-168,,152.5,87.5,95.5,-100,,95.5,160,175.5,182.5,187.5,182.5,430.5,1,SBD
Tyi Richards,USA,22,F,Wraps,F_OCR_AWPC,Yes,82.5,82.5,152.5,-168,-168,,152.5,87.5,95.5,-100,,95.5,160,175.5,182.5,187.5,182.5,430.5,1,SBD
Tyrel Williams,USA,25,M,Wraps,M_OCR_AWPC,Yes,163.1,140+,365,-385,-385,,365,232.5,242.5,-245,,242.5,287.5,300,-305,,300,907.5,1,SBD
Unknown Lifter,Russia,62,F,Raw,F_MR_5_AWPC,Yes,91.6,90+,,,,,,,,,,,55,63,72.5,80,72.5,72.5,1,D
Victoria Ruiz,USA,38,F,Wraps,F_SCR_AWPC,Yes,69.9,75,82.5,102.5,110,,110,60,-65,-65,,60,130,145,152.5,,152.5,322.5,1,SBD
Victoria Ruiz,USA,38,F,Wraps,F_OCR_AWPC,Yes,69.9,75,82.5,102.5,110,,110,60,-65,-65,,60,130,145,152.5,,152.5,322.5,3,SBD
Vincent Falzetta,USA,20,M,Wraps,M_OCR_AWPC,Yes,66.8,67.5,215,227.5,237.5,,237.5,130,137.5,-140,,137.5,260,277.5,-285,,277.5,652.5,1,SBD
Vincent Stepchuk,USA,52,M,Multi-ply,M_MEM_3_AWPC,Yes,93.6,100,272.5,292.5,-300,,292.5,222.5,230,232.5,,232.5,222.5,237.5,-247.5,,237.5,762.5,1,SBD
Vladislab Kobelev,Russia,49,M,Raw,M_MR_2_AWPC,Yes,91.4,100,,,,,,,,,,,200,-220,,,200,200,1,D
Wade McAteer,USA,52,M,Single-ply,M_MES_3_AWPC,Yes,117.9,125,-205,205,237.5,-272.5,237.5,205,-220,-220,,205,182.5,-205,,,182.5,625,1,SBD
Wade McAteer,USA,52,M,Single-ply,M_MES_3_AWPC,Yes,118,125,,,,,,197.5,210,-220,,210,,,,,,210,1,B
Wade McAteer,USA,52,M,Single-ply,M_OES_AWPC,Yes,118,125,,,,,,197.5,210,-220,,210,,,,,,210,1,B
Walter Anczerewicz,USA,75,M,Raw,M_MR_8_AWPC,Yes,86,90,,,,,,95,97.5,-102.5,,97.5,,,,,,97.5,1,B
William Allen #1,USA,71,M,Raw,M_MR_7_AWPC,Yes,85.1,90,,,,,,,,,,,137.5,147.5,150,,150,150,1,D
Yanet Millan Calderon,USA,31,F,Wraps,F_OCR_AWPC,Yes,53.3,56,115,-120,-120,,115,47.5,50,-52.5,,50,112.5,117.5,122.5,,122.5,287.5,2,SBD
Zachary May,USA,23,M,Single-ply,M_OES_AWPC,Yes,74.2,75,225,237.5,245,,245,137.5,152.5,157.5,,157.5,212.5,225,232.5,,232.5,635,1,SBD
