Name,Age,Sex,Equipment,Division,BodyweightKg,WeightClassKg,Squat1Kg,Squat2Kg,Squat3Kg,Squat4Kg,Best3SquatKg,Bench1Kg,Bench2Kg,Bench3Kg,Best3BenchKg,Deadlift1Kg,Deadlift2Kg,Deadlift3Kg,Deadlift4Kg,Best3DeadliftKg,TotalKg,Event,Place,Team
Anita Lenehan,44,F,Raw,F_MR_1_IPO,73.1,75,100,107.5,112.5,,112.5,45,50,-52.5,50,120,-130,130,,130,292.5,SBD,1,ISI
Barbara Grey,43,F,Raw,F_MR_1_IPO,78,82.5,57.5,-62.5,-62.5,,57.5,-35,35,40,40,80,90,100,,100,197.5,SBD,1,Boyneside
Lucy Toner,26,F,Raw,F_OR_IPO,59.9,60,75,-80,80,,80,45,50,-57.5,50,105,110,117.5,,117.5,247.5,SBD,1,Boyneside
Niamh Savage,38,F,Raw,F_OR_IPO,67.4,67.5,110,120,125,,125,60,-65,-65,60,160,170,180,,180,365,SBD,1,Midelton Fitness
Venessa O'Keefe,29,F,Raw,F_OR_IPO,64.9,67.5,110,120,127.5,,127.5,60,65,70,70,150,160,-167.5,,160,357.5,SBD,2,LPC
Sharon Duffy,32,F,Raw,F_OR_IPO,65.8,67.5,100,-105,-105,,100,45,-50,-50,45,120,125,127.5,,127.5,272.5,SBD,3,DKIT Sport
Shawna O'Callaghan,32,F,Raw,F_OR_IPO,73.6,75,-55,55,60,,60,37.5,40,-42.5,40,80,90,-100,,90,190,SBD,1,Boyneside
Laura O'Shea,33,F,Raw,F_OR_IPO,80.5,82.5,95,102.5,-107.5,,102.5,62.5,65,-67.5,65,145,152.5,157.5,,157.5,325,SBD,1,
Niamh Reynolds,33,F,Raw,F_OR_IPO,77.9,82.5,-75,-75,75,,75,45,47.5,-52.5,47.5,95,100,110,,110,232.5,SBD,2,DPSP
Louise Kershaw,24,F,Raw,F_OR_IPO,88.2,90,90,100,106,,106,45,47.5,50,50,110,117.5,122.5,,122.5,278.5,SBD,1,FBT
Doreen Cullen,32,F,Raw,F_OR_IPO,83.5,90,75,80,82.5,,82.5,37.5,40,42.5,42.5,102.5,110,115,,115,240,SBD,2,Boyneside
Sarah McBride,33,F,Raw,F_OR_IPO,86.8,90,80,85,-92.5,,85,45,50,-52.5,50,95,-105,105,,105,240,SBD,3,ISI
Avril Bowe,26,F,Raw,F_OR_IPO,54.2,56,70,75,80,,80,-47.5,-47.5,-47.5,,-115,-115,-115,,,,SBD,DQ,Macho Gym
Grainne Fagan,24,F,Raw,F_OR_IPO,66.6,67.5,120,127.5,130,,130,65,-70,70,70,135,140,145,,145,345,SBD,1,DLR Loughlinstown
Jamie Moore,,F,Raw,F_OR_IPO,81.5,82.5,100,-110,-110,,100,65,-67.5,67.5,67.5,140,145,-155,,145,312.5,SBD,1,Sean Kilroy Fitness
Tara Mooney,31,F,Wraps,F_OCR_IPO,55.7,56,95,-100,100,,100,45,50,52.5,52.5,115,120,125,,125,277.5,SBD,1,Tullamore
Lisa Farrelly,29,F,Wraps,F_OCR_IPO,59.7,60,135,145,150,,150,77.5,82.5,-87.5,82.5,155,165,-175,,165,397.5,SBD,1,Asylum
Joanne Connolly,30,F,Wraps,F_OCR_IPO,81.8,82.5,165,175,183,,183,75,80,,80,175,185,-190,,185,448,SBD,1,LPC
Fiona Cullen,26,F,Wraps,F_OCR_IPO,50,52,65,72.5,-80,,72.5,45,-47.5,-47.5,45,75,85,95,100,95,212.5,SBD,1,
Sophia Pauzin,26,F,Wraps,F_OCR_IPO,55.8,56,-90,100,105,,105,42.5,45,-47.5,45,110,115,120,,120,270,SBD,1,LPC
Natasha Maloney,30,F,Wraps,F_OCR_IPO,58.8,60,130,142.5,145,,145,65,-70,-70,65,135,145,152.5,,152.5,362.5,SBD,1,Galway PL
Elma Martin,33,F,Wraps,F_OCR_IPO,59.9,60,95,105,-117.5,,105,50,-52.5,-52.5,50,110,120,-125,,120,275,SBD,2,Boyneside
Sinead Murtagh,23,F,Wraps,F_OCR_IPO,57.7,60,90,97.5,102.5,,102.5,45,47.5,-50,47.5,115,120,-125,,120,270,SBD,3,Laoch
Tirzah Carey,34,F,Wraps,F_OCR_IPO,59.8,60,87.5,-95,-97.5,,87.5,57.5,-60,60,60,107.5,115,-120,,115,262.5,SBD,4,Loach
Karen McKernan,39,F,Wraps,F_OCR_IPO,57,60,-125,-127.5,-127.5,,,62.5,65,-67.5,65,120,127.5,-130,,127.5,,SBD,DQ,Laoch
Assumpta Feeney,40,F,Wraps,F_OCR_IPO,66.3,67.5,-140,140,150,,150,75,80,-82.5,80,162.5,-172.5,-172.5,,162.5,392.5,SBD,1,
Elaine Merriman,30,F,Wraps,F_OCR_IPO,67.3,67.5,80,90,-100,,90,37.5,40,-42.5,40,90,102.5,-112.5,,102.5,232.5,SBD,2,FBT
Aoife Byrne,26,F,Wraps,F_OCR_IPO,71.8,75,60,70,80,,80,47.5,50,52.5,52.5,125,135,-142.5,,135,267.5,SBD,1,FBT
Sarah Clarke,29,F,Wraps,F_OCR_IPO,74.4,75,65,-75,75,,75,30,32.5,35,35,90,102.5,107.5,,107.5,217.5,SBD,2,FBT
Emma Ryall,34,F,Wraps,F_OCR_IPO,79.9,82.5,70,80,-90,,80,45,47.5,-50,47.5,115,127.5,130,,130,257.5,SBD,1,FBT
Noeleen Gregory,51,F,Wraps,F_MCR_3_IPO,66.5,67.5,92.5,97.5,102.5,,102.5,57.5,60,-62.5,60,97.5,105,-110,,105,267.5,SBD,1,Boyneside
Carmel Ramsay,48,F,Wraps,F_MCR_2_IPO,70.6,75,105,115,,,115,45,50,-55,50,125,132.5,140,,140,305,SBD,1,Boyneside
Poipin Dearg,40,F,Wraps,F_MCR_1_IPO,60,60,87.5,95,-100,,95,-55,55,-57.5,55,100,107.5,112.5,,112.5,262.5,SBD,1,Laoch
Olivia Donnelly,44,F,Wraps,F_MCR_1_IPO,78.5,82.5,100,110,115,,115,52.5,55,57.5,57.5,145,155,162.5,,162.5,335,SBD,1,Boyneside
Aoife Monaghan,21,F,Wraps,F_JCR_IPO,51.8,52,105,115,120,,120,52.5,57.5,-60,57.5,130,137.5,-142.5,,137.5,315,SBD,1,Integral
Alice Darcy,23,F,Wraps,F_JCR_IPO,62.2,67.5,80,85,90,,90,40,45,47.5,47.5,105,115,120,,120,257.5,SBD,1,Studio One
Grainne Considine,23,F,Wraps,F_JCR_IPO,73.3,75,-127.5,-132.5,132.5,-140,132.5,67.5,72.5,-75,72.5,150,162.5,170,,170,375,SBD,1,Galway PL
Naomi Smith #1,23,F,Wraps,F_JCR_IPO,74.6,75,117.5,122.5,130,,130,60,-62.5,-62.5,60,120,127.5,-132.5,,127.5,317.5,SBD,2,Loach
Olivia Lane,23,F,Wraps,F_JCR_IPO,88,90,142.5,152.5,160,,160,80,85,90,90,190,-200,-200,,190,440,SBD,1,Galway PL
Amy Sherin,19,F,Wraps,F_TCR_3_IPO,75,75,100,110,115,,115,45,50,52.5,52.5,110,117.5,122.5,-127.5,122.5,290,SBD,1,LPC
Lota Leinberga,18,F,Wraps,F_TCR_3_IPO,58.8,60,105,115,-120,,115,52.5,55,57.5,57.5,105,112.5,117.5,,117.5,290,SBD,1,Integral
Maria King,49,F,Raw,F_MR_2_IPO,126.9,90+,30,,,,30,50,55,57.5,57.5,100,110,115,,115,202.5,SBD,1,Boyneside
Sinead Kearns,46,F,Raw,F_MR_2_IPO,120.2,90+,80,87.5,90,,90,45,50,55,55,115,125,132.5,,132.5,277.5,SBD,1,Boyneside
Sue Vaughey,36,F,Raw,F_OR_IPO,92.2,90+,90,100,107.5,,107.5,55,-57.5,-57.5,55,125,-135,-135,,125,287.5,SBD,1,Boyneside
