Division,WeightClassKg,Place,Name,Team,BodyweightKg,Best3SquatKg,Best3BenchKg,Best3DeadliftKg,TotalKg,Equipment,Event,Sex
Boys,51.71,1,Carlos Rodriguez #1,Olton,51.71,124.74,63.5,136.08,324.32,Single-ply,SBD,M
Boys,51.71,2,Rowdy Huffaker,Abernathy,48.81,102.06,47.63,106.59,256.28,Single-ply,SBD,M
Boys,51.71,3,Jordan Garcia #4,Slaton,48.99,72.57,45.36,117.93,235.87,Single-ply,SBD,M
Boys,51.71,4,Desmond Williams,Slaton,46.08,88.45,45.36,99.79,233.6,Single-ply,SBD,M
Boys,55.79,1,Philip Rocha,Slaton,55.7,136.08,72.57,149.69,358.34,Single-ply,SBD,M
Boys,55.79,2,Zach Gilbert,Lubbock Roosevelt,52.07,111.13,58.97,127.01,297.1,Single-ply,SBD,M
Boys,55.79,3,Juan Yebra,Olton,54.61,97.52,63.5,129.27,290.3,Single-ply,SBD,M
Boys,55.79,4,Jose Perez #6,Sundown,54.34,108.86,52.16,124.74,285.76,Single-ply,SBD,M
Boys,59.87,1,Gavin Schniers,Slaton,58.51,124.74,74.84,165.56,365.14,Single-ply,SBD,M
Boys,59.87,2,Santos Yanez,Slaton,59.87,124.74,79.38,142.88,347,Single-ply,SBD,M
Boys,59.87,3,Jesus Garza,Brownfield,59.87,124.74,70.31,136.08,331.12,Single-ply,SBD,M
Boys,59.87,4,George Flores,Abernathy,59.06,117.93,81.65,122.47,322.05,Single-ply,SBD,M
Boys,59.87,5,Brandon Ureste,Abernathy,59.87,108.86,61.23,117.93,288.03,Single-ply,SBD,M
Boys,59.87,6,Peyton Lowdermilk,Tahoka,58.33,106.59,56.7,113.4,276.69,Single-ply,SBD,M
Boys,67.13,1,JD Rojas,Lubbock Roosevelt,63.59,176.9,124.74,195.04,496.68,Single-ply,SBD,M
Boys,67.13,2,Johnny Hernandez,Sundown,63.23,210.92,95.25,181.44,487.61,Single-ply,SBD,M
Boys,67.13,3,Derek Tovar,Sudan,62.69,136.08,95.25,136.08,367.41,Single-ply,SBD,M
Boys,67.13,4,Alex Mendoza #3,Abernathy,62.14,142.88,68.04,151.95,362.87,Single-ply,SBD,M
Boys,67.13,5,Javier Alcorta,Slaton,65.5,117.93,83.91,158.76,360.61,Single-ply,SBD,M
Boys,67.13,6,Zach Mendoza,Abernathy,61.87,124.74,72.57,142.88,340.19,Single-ply,SBD,M
Boys,67.13,7,Donovan Gomez,Lubbock Roosevelt,60.6,117.93,74.84,129.27,322.05,Single-ply,SBD,M
Boys,67.13,8,Isaac Hernandez,Sundown,60.96,124.74,70.31,127.01,322.05,Single-ply,SBD,M
Boys,67.13,9,Seth Salinas,Olton,62.51,108.86,72.57,140.61,322.05,Single-ply,SBD,M
Boys,67.13,10,Deshawn Tyler,Lubbock Roosevelt,63.68,117.93,68.04,133.81,319.78,Single-ply,SBD,M
Boys,67.13,11,Abel Tinajero,Sudan,65.77,115.67,72.57,120.2,308.44,Single-ply,SBD,M
Boys,67.13,12,Mason Walker,Tahoka,62.69,70.31,43.09,79.38,192.78,Single-ply,SBD,M
Boys,67.13,DQ,Ray Ortega,Brownfield,64.32,,,,,Single-ply,SBD,M
Boys,74.84,1,Blake Allen,Lubbock Roosevelt,73.48,167.83,106.59,208.65,483.08,Single-ply,SBD,M
Boys,74.84,2,Noah Baker,Sudan,71.76,170.1,92.99,183.7,446.79,Single-ply,SBD,M
Boys,74.84,3,Hadley Reynolds,Tahoka,71.49,181.44,99.79,163.29,444.52,Single-ply,SBD,M
Boys,74.84,4,Donovan Salazar,Slaton,73.12,174.63,92.99,165.56,433.18,Single-ply,SBD,M
Boys,74.84,5,Parker Redwine,Abernathy,74.48,163.29,83.91,174.63,421.84,Single-ply,SBD,M
Boys,74.84,6,Marco Godinez,Sudan,67.68,151.95,92.99,154.22,399.16,Single-ply,SBD,M
Boys,74.84,7,Bryan Valencia,Olton,70.03,151.95,90.72,147.42,390.09,Single-ply,SBD,M
Boys,74.84,8,Xavier Rosales,Olton,70.4,151.95,79.38,158.76,390.09,Single-ply,SBD,M
Boys,74.84,9,Caleb Scott,Lubbock Roosevelt,72.94,136.08,83.91,163.29,383.29,Single-ply,SBD,M
Boys,74.84,10,Hondo Hinojosa,Sundown,67.31,147.42,77.11,151.95,376.48,Single-ply,SBD,M
Boys,74.84,11,Matthew Diaz,Tahoka,68.76,136.08,74.84,151.95,362.87,Single-ply,SBD,M
Boys,74.84,12,Daniel Tinajero #2,Sudan,69.49,124.74,81.65,136.08,342.46,Single-ply,SBD,M
Boys,74.84,13,Seth Rennels,Slaton,69.22,102.06,74.84,136.08,312.98,Single-ply,SBD,M
Boys,82.1,1,Link Wilkes,Sundown,81.56,217.72,124.74,231.33,573.79,Single-ply,SBD,M
Boys,82.1,2,Braxton Creager,Slaton,82.1,199.58,104.33,217.72,521.63,Single-ply,SBD,M
Boys,82.1,3,Steven Cabrera,Sundown,75.11,192.78,113.4,181.44,487.61,Single-ply,SBD,M
Boys,82.1,4,Jayton Grisham,Abernathy,75.3,188.24,108.86,188.24,485.34,Single-ply,SBD,M
Boys,82.1,5,Collin Elam,Sundown,75.3,181.44,102.06,158.76,442.25,Single-ply,SBD,M
Boys,82.1,6,Bryce Spencer,Sundown,77.38,172.37,95.25,167.83,435.45,Single-ply,SBD,M
Boys,82.1,7,David DeLaRosa,Olton,79.74,145.15,92.99,192.78,430.91,Single-ply,SBD,M
Boys,82.1,8,Austin Bramlett,Slaton,82.01,147.42,77.11,176.9,401.43,Single-ply,SBD,M
Boys,82.1,9,Aiden Jumper,Abernathy,81.01,149.69,77.11,156.49,383.29,Single-ply,SBD,M
Boys,82.1,10,Zach Gonzales,Sudan,76.93,120.2,79.38,147.42,347,Single-ply,SBD,M
Boys,82.1,11,Stephen Cortez,Abernathy,80.83,108.86,68.04,104.33,281.23,Single-ply,SBD,M
Boys,82.1,DQ,Mark Pando,Abernathy,78.93,199.58,122.47,,,Single-ply,SBD,M
Boys,82.1,DQ,John Qunionez,Tahoka,81.56,,,,,Single-ply,SBD,M
Boys,89.81,1,Ladd Wilkes,Sundown,88.18,226.8,136.08,217.72,580.6,Single-ply,SBD,M
Boys,89.81,2,Nathan Sullivan,Abernathy,88.18,183.7,113.4,195.04,492.15,Single-ply,SBD,M
Boys,89.81,3,Jeremy L Hernandez,Sundown,83.28,167.83,92.99,188.24,449.06,Single-ply,SBD,M
Boys,89.81,4,Brayden Castillion,Tahoka,87.63,170.1,95.25,181.44,446.79,Single-ply,SBD,M
Boys,89.81,5,Brit Lockaby,Tahoka,83.73,158.76,92.99,181.44,433.18,Single-ply,SBD,M
Boys,89.81,6,Justyn McCarty,Tahoka,82.92,156.49,97.52,149.69,403.7,Single-ply,SBD,M
Boys,89.81,7,Damon Jones,Olton,84.64,145.15,95.25,163.29,403.7,Single-ply,SBD,M
Boys,89.81,8,Cameron McQueen,Brownfield,86.09,145.15,97.52,158.76,401.43,Single-ply,SBD,M
Boys,89.81,DQ,Andy Canales,Lubbock Roosevelt,85.64,172.37,,,,Single-ply,SBD,M
Boys,99.79,1,Xavier Garza,Sundown,99.06,292.57,151.95,267.62,712.14,Single-ply,SBD,M
Boys,99.79,2,Harley Simpson,Slaton,99.43,258.55,122.47,195.04,576.06,Single-ply,SBD,M
Boys,99.79,3,Isaia Montgomery,Lubbock Roosevelt,95.62,224.53,131.54,217.72,573.79,Single-ply,SBD,M
Boys,99.79,4,Noah Hernandez,Abernathy,90.81,188.24,102.06,183.7,474,Single-ply,SBD,M
Boys,99.79,5,Blake Harmon,Tahoka,99.43,136.08,79.38,142.88,358.34,Single-ply,SBD,M
Boys,99.79,DQ,Ruben Quinonez,Tahoka,96.52,226.8,113.4,,,Single-ply,SBD,M
Boys,99.79,DQ,Diego Garcia,Brownfield,96.34,201.85,,,,Single-ply,SBD,M
Boys,109.77,1,Roy Rodriguez,Sundown,100.97,244.94,136.08,213.19,594.21,Single-ply,SBD,M
Boys,109.77,2,Jacob Jalomo,Olton,102.78,210.92,120.2,226.8,557.92,Single-ply,SBD,M
Boys,109.77,3,Ian Ponce,Abernathy,106.59,210.92,106.59,167.83,485.34,Single-ply,SBD,M
Boys,109.77,4,EJ Salinas,Abernathy,101.51,181.44,117.93,170.1,469.47,Single-ply,SBD,M
Boys,109.77,5,Jonah Lopez,Abernathy,108.77,181.44,102.06,165.56,449.06,Single-ply,SBD,M
Boys,109.77,6,Joseph Trevino,Brownfield,106.87,172.37,90.72,167.83,430.91,Single-ply,SBD,M
Boys,109.77,7,Israel Rodriguez,Slaton,105.23,176.9,90.72,158.76,426.38,Single-ply,SBD,M
Boys,109.77,8,Isaiah Montes,Sudan,107.14,149.69,95.25,181.44,426.38,Single-ply,SBD,M
Boys,124.74,1,Jet Grant,Sundown,120.84,249.48,154.22,213.19,616.89,Single-ply,SBD,M
Boys,124.74,2,Daniel Coronado,Olton,124.47,181.44,131.54,185.97,498.95,Single-ply,SBD,M
Boys,124.74,3,Juan Martinez,Lubbock Roosevelt,112.85,183.7,108.86,185.97,478.54,Single-ply,SBD,M
Boys,124.74,4,Julian Rodriguez,Tahoka,114.21,188.24,99.79,149.69,437.72,Single-ply,SBD,M
Boys,124.74+,1,Alek Garcia,Slaton,168.37,249.48,106.59,226.8,582.87,Single-ply,SBD,M
Boys,124.74+,2,Bull Smith,Sundown,132.81,181.44,142.88,226.8,551.11,Single-ply,SBD,M
Boys,124.74+,3,Francisco Saenz,Olton,136.44,217.72,113.4,217.72,548.85,Single-ply,SBD,M
Boys,124.74+,4,Cristian Rivera,Olton,140.43,217.72,95.25,188.24,501.22,Single-ply,SBD,M
Boys,124.74+,5,Tony Garcia,Tahoka,167.83,204.12,106.59,183.7,494.42,Single-ply,SBD,M
Boys,124.74+,6,Jayden Edwards,Lubbock Roosevelt,132.99,181.44,111.13,192.78,485.34,Single-ply,SBD,M
Boys,124.74+,7,Kevin Shoemaker,Lubbock Roosevelt,129.46,181.44,122.47,176.9,480.81,Single-ply,SBD,M
Boys,124.74+,8,Josh Salas,Slaton,141.61,174.63,95.25,183.7,453.59,Single-ply,SBD,M
Boys,124.74+,9,Victor Soto,Slaton,142.07,149.69,99.79,165.56,415.04,Single-ply,SBD,M
Boys,124.74+,DQ,Bobby Johnson,Brownfield,127.55,,,,,Single-ply,SBD,M
