Place,Name,Division,BirthYear,Country,BodyweightKg,Squat1Kg,Squat2Kg,Squat3Kg,Best3SquatKg,Bench1Kg,Bench2Kg,Bench3Kg,Best3BenchKg,Deadlift1Kg,Deadlift2Kg,Deadlift3Kg,Best3DeadliftKg,TotalKg,WeightClassKg,Sex,Event,Equipment
1,Klaudia Poszwa,Juniorki do lat 18,2000,Poland,47.3,100,-105,105,105,45,-47.5,47.5,47.5,125,130,-136,130,282.5,57,F,SBD,Raw
2,Julia Kobierecka,Juniorki do lat 18,2001,Poland,54.9,100,105,-107.5,105,55,60,-62.5,60,122.5,-125,127.5,127.5,292.5,57,F,SBD,Raw
3,Justyna Marcińczyk,Juniorki do lat 18,2000,Poland,56.5,-110,110,115,115,40,45,47.5,47.5,115,120,-122.5,120,282.5,57,F,SBD,Raw
4,Aniela Lis,Juniorki do lat 18,2002,Poland,42.2,-50,57.5,62.5,62.5,35,-40,40,40,60,67.5,75,75,177.5,57,F,SBD,Raw
5,Patrycja Smolakowska,Juniorki do lat 18,2001,Poland,53.8,70,77.5,-82.5,77.5,30,35,37.5,37.5,70,85,-100,85,200,57,F,SBD,Raw
6,Maria Ostańska,Juniorki do lat 18,2001,Poland,56.2,70,-80,-90,70,-37.5,37.5,-42.5,37.5,75,82.5,90,90,197.5,57,F,SBD,Raw
7,Nadia Famulska,Juniorki do lat 18,2003,Poland,48.8,-75,-80,-80,,35,40,-42.5,40,80,90,95,95,135,57,F,SBD,Raw
1,Ida Lis,Juniorki do lat 18,2000,Poland,66.7,145.5,152.5,-160,152.5,70,77.5,82.5,82.5,165,172.5,178,178,413,57+,F,SBD,Raw
2,Martyna Terlecka,Juniorki do lat 18,2001,Poland,62.8,-80,80,87.5,87.5,52.5,57.5,62.5,62.5,107.5,112.5,117.5,117.5,267.5,57+,F,SBD,Raw
3,Katarzyna Koniarska,Juniorki do lat 18,2000,Poland,60,95,-97.5,-97.5,95,45,47.5,50,50,95,105,-110,105,250,57+,F,SBD,Raw
4,Natalia Bogdańska,Juniorki do lat 18,2001,Poland,63.1,90,95,-100,95,45,47.5,-50,47.5,95,97.5,102.5,102.5,245,57+,F,SBD,Raw
5,Klaudia Murza,Juniorki do lat 18,2002,Poland,85.3,-95,105,117.5,117.5,30,-35,37.5,37.5,115,125,135,135,290,57+,F,SBD,Raw
6,Zuzanna Zawadzka,Juniorki do lat 18,2000,Poland,71.5,95,-102.5,-102.5,95,-37.5,40,-42.5,40,105,110,120,120,255,57+,F,SBD,Raw
7,Weronika Gardyńska,Juniorki do lat 18,2001,Poland,59.2,65,70,75,75,37.5,40,-42.5,40,85,90,-95,90,205,57+,F,SBD,Raw
1,Zuzanna Kula,Juniorki do lat 20,1999,Poland,42.6,90,-95,-95,90,52.5,-55,-55,52.5,105,112.5,117.5,117.5,260,63,F,SBD,Raw
2,Magdalena Frącek,Juniorki do lat 20,1999,Poland,51.9,-92.5,92.5,-100,92.5,-45,47.5,50,50,110,117.5,122.5,122.5,265,63,F,SBD,Raw
3,Aleksandra Szymczykowska,Juniorki do lat 20,1998,Poland,52,80,85,-87.5,85,60,62.5,65,65,105,110,115,115,265,63,F,SBD,Raw
4,Olga Opyrchal,Juniorki do lat 20,1998,Poland,62.2,-100,100,107.5,107.5,-47.5,-47.5,47.5,47.5,127.5,130,-132.5,130,285,63,F,SBD,Raw
5,Marta Ostańska,Juniorki do lat 20,1999,Poland,56.1,65,-70,75,75,32.5,35,-37.5,35,75,80,85,85,195,63,F,SBD,Raw
6,Justyna Labun,Juniorki do lat 20,1999,Poland,58.2,-100,-105,-105,,52.5,55,-60,55,125,130,135,135,190,63,F,SBD,Raw
1,Paulina Pawyza,Juniorki do lat 20,1999,Poland,66.5,95,100,107.5,107.5,55,60,-62.5,60,100,105,-110,105,272.5,72,F,SBD,Raw
1,Paulina Szymanel,Juniorki do lat 23,1995,Poland,46.2,95,100,103.5,103.5,60.5,63,,63,120,-129,-129,120,286.5,63,F,SBD,Raw
2,Marika Zandecka,Juniorki do lat 23,1995,Poland,62.1,117.5,122.5,127.5,127.5,67.5,70,-72.5,70,145,155,-162.5,155,352.5,63,F,SBD,Raw
3,Patrycja Nadwodna,Juniorki do lat 23,1995,Poland,56.3,-97.5,-97.5,97.5,97.5,-57.5,57.5,-62.5,57.5,127.5,135,-145,135,290,63,F,SBD,Raw
4,Aleksandra Grzywniak,Juniorki do lat 23,1997,Poland,50.6,95,-100,-100,95,50,55,57.5,57.5,90,97.5,105,105,257.5,63,F,SBD,Raw
5,Karolina Nowok,Juniorki do lat 23,1996,Poland,53.7,90,100,-110,100,45,-50,50,50,90,100,110,110,260,63,F,SBD,Raw
6,Natalia Jurczak,Juniorki do lat 23,1997,Poland,45.4,-85,85,87.5,87.5,-42.5,45,-47.5,45,85,90,95,95,227.5,63,F,SBD,Raw
7,Edyta Walędzik,Juniorki do lat 23,1995,Poland,55.3,-95,95,105,105,-45,45,-47.5,45,105,-112.5,-112.5,105,255,63,F,SBD,Raw
8,Wiktoria Paga,Juniorki do lat 23,1995,Poland,57.2,85,92.5,-105,92.5,-50,55,-60,55,85,95,110,110,257.5,63,F,SBD,Raw
9,Laura Wojtacha,Juniorki do lat 23,1997,Poland,50.6,-77.5,77.5,80,80,40,-42.5,-42.5,40,85,90,102.5,102.5,222.5,63,F,SBD,Raw
10,Kamila Kuźnicka,Juniorki do lat 23,1995,Poland,63,85,97.5,100,100,45,-52.5,52.5,52.5,95,100,105,105,257.5,63,F,SBD,Raw
11,Klaudia Stochaj,Juniorki do lat 23,1997,Poland,61.9,-75,75,80,80,35,40,42.5,42.5,105,112.5,-117.5,112.5,235,63,F,SBD,Raw
12,Paulina Zielińska,Juniorki do lat 23,1995,Poland,50.8,52.5,-57.5,-60,52.5,-37.5,37.5,40,40,90,97.5,-107.5,97.5,190,63,F,SBD,Raw
1,Paulina Lechowicz,Juniorki do lat 23,1996,Poland,81.4,130,137.5,145,145,90,95,-98,95,145,155,162.5,162.5,402.5,63+,F,SBD,Raw
2,Daria Ławniczak,Juniorki do lat 23,1995,Poland,77.4,110,120,-127.5,120,85,90,-92.5,90,125,135,140,140,350,63+,F,SBD,Raw
3,Anna Niemczyk,Juniorki do lat 23,1996,Poland,74.3,110,120,130,130,50,52.5,55,55,-135,145,150,150,335,63+,F,SBD,Raw
4,Anna Pandyra,Juniorki do lat 23,1995,Poland,67.1,100,107.5,115,115,50,-52.5,55,55,120,132.5,142.5,142.5,312.5,63+,F,SBD,Raw
5,Marta Leśniewska,Juniorki do lat 23,1996,Poland,68.1,-110,110,-115,110,57.5,62.5,-65,62.5,-125,125,-135,125,297.5,63+,F,SBD,Raw
6,Patrycja Kulczycka,Juniorki do lat 23,1996,Poland,82.6,115,-120,-122.5,115,-55,55,-57.5,55,130,140,150,150,320,63+,F,SBD,Raw
7,Magdalena Ziętek,Juniorki do lat 23,1997,Poland,71.4,115,-122.5,-122.5,115,-45,45,50,50,115,-122.5,122.5,122.5,287.5,63+,F,SBD,Raw
8,Justyna Kloc,Juniorki do lat 23,1996,Poland,69.1,90,95,-100,95,52.5,55,-60,55,110,117.5,125,125,275,63+,F,SBD,Raw
9,Aleksandra Milczarek,Juniorki do lat 23,1995,Poland,64.8,105,110,-115,110,37.5,40,42.5,42.5,-107.5,110,-117.5,110,262.5,63+,F,SBD,Raw
10,Katarzyna Pietkiewicz,Juniorki do lat 23,1995,Poland,88.8,102.5,110,115,115,60,-65,-65,60,120,130,140,140,315,63+,F,SBD,Raw
11,Agata Kwiatkowska,Juniorki do lat 23,1996,Poland,64.7,85,-90,92.5,92.5,47.5,52.5,-57.5,52.5,100,110,115,115,260,63+,F,SBD,Raw
12,Antonina Baraniak,Juniorki do lat 23,1997,Poland,72.2,82.5,87.5,-90,87.5,-50,52.5,-55,52.5,110,117.5,122.5,122.5,262.5,63+,F,SBD,Raw
1,Paulina Szymanel,Seniorki,1995,Poland,46.2,95,100,103.5,103.5,60.5,63,,63,120,-129,-129,120,286.5,47,F,SBD,Raw
2,Sylwia Franke,Seniorki,1986,Poland,46.83,90,95,100,100,42.5,45,-47.5,45,110,115,-122.5,115,260,47,F,SBD,Raw
3,Nina Skalska,Seniorki,1989,Poland,43.9,85,90,92.5,92.5,55,-57.5,-57.5,55,102.5,107.5,110,110,257.5,47,F,SBD,Raw
4,Anna Mikołajczyk,Seniorki,1990,Poland,46.6,-72.5,72.5,75,75,47.5,-52.5,-52.5,47.5,105,110,115,115,237.5,47,F,SBD,Raw
5,Natalia Jurczak,Seniorki,1997,Poland,45.4,-85,85,87.5,87.5,-42.5,45,-47.5,45,85,90,95,95,227.5,47,F,SBD,Raw
6,Marta Budnik,Seniorki,1992,Poland,45.4,55,-60,-60,55,32.5,-35,35,35,80,-85,85,85,175,47,F,SBD,Raw
1,Ewa Mioduszewska,Seniorki,1989,Poland,50.2,102.5,107.5,-112.5,107.5,52.5,55,57.5,57.5,135,142.5,150,150,315,52,F,SBD,Raw
2,Klaudia Poszwa,Seniorki,2000,Poland,47.3,100,-105,105,105,45,-47.5,47.5,47.5,125,130,-136,130,282.5,52,F,SBD,Raw
3,Anna Sułkowska,Seniorki,1989,Poland,50.5,92.5,95,97.5,97.5,55,-57.5,-60,55,117.5,122.5,125,125,277.5,52,F,SBD,Raw
4,Dobrosława Lewicka,Seniorki,1989,Poland,50.9,87.5,92.5,97.5,97.5,57.5,62.5,-65,62.5,105,115,-122.5,115,275,52,F,SBD,Raw
5,Aleksandra Szymczykowska,Seniorki,1998,Poland,52,80,85,-87.5,85,60,62.5,65,65,105,110,115,115,265,52,F,SBD,Raw
6,Agnieszka Nowak,Seniorki,1994,Poland,51.1,80,85,90,90,55,60,-65,60,97.5,105,112.5,112.5,262.5,52,F,SBD,Raw
7,Anna Potocka,Seniorki,1977,Poland,51.3,90,92.5,95,95,50,52.5,-55,52.5,105,112.5,-120,112.5,260,52,F,SBD,Raw
8,Laura Wojtacha,Seniorki,1997,Poland,50.6,-77.5,77.5,80,80,40,-42.5,-42.5,40,85,90,102.5,102.5,222.5,52,F,SBD,Raw
DQ,Helena Morawska,Seniorki,1972,Poland,53.7,90,-97.5,-97.5,90,57.5,60,-61,60,107.5,115,120,120,,57,F,SBD,Raw
1,Olimpia Felińska,Seniorki,1992,Poland,56,115,122.5,130,130,75,80.5,85,85,125,135,147.5,147.5,362.5,57,F,SBD,Raw
2,Julia Kobierecka,Seniorki,2001,Poland,54.9,100,105,-107.5,105,55,60,-62.5,60,122.5,-125,127.5,127.5,292.5,57,F,SBD,Raw
3,Patrycja Nadwodna,Seniorki,1995,Poland,56.3,-97.5,-97.5,97.5,97.5,-57.5,57.5,-62.5,57.5,127.5,135,-145,135,290,57,F,SBD,Raw
4,Maria Olszowy,Seniorki,1989,Poland,55.6,90,95,102.5,102.5,42.5,47.5,52.5,52.5,105,115,130,130,285,57,F,SBD,Raw
5,Ewelina Hereć,Seniorki,1992,Poland,56.6,95,97.5,-100,97.5,60,65,67.5,67.5,110,117.5,120,120,285,57,F,SBD,Raw
6,Brygida Ryczaj,Seniorki,1988,Poland,56.3,95,100,-105,100,47.5,50,-52.5,50,107.5,115,122.5,122.5,272.5,57,F,SBD,Raw
7,Anna Tarnowska,Seniorki,1978,Poland,54.7,92.5,97.5,102.5,102.5,35,37.5,40,40,115,120,127.5,127.5,270,57,F,SBD,Raw
8,Patrycja Lecyk,Seniorki,1989,Poland,55.5,95,100,107.5,107.5,45,50,-52.5,50,100,110,112.5,112.5,270,57,F,SBD,Raw
9,Edyta Walędzik,Seniorki,1995,Poland,55.3,-95,95,105,105,-45,45,-47.5,45,105,-112.5,-112.5,105,255,57,F,SBD,Raw
DQ,Małgorzata Otto,Seniorki,1976,Poland,57.8,105,110,-112.5,110,55,57.5,60,60,115,120,125,125,,63,F,SBD,Raw
1,Emilia Sobiech-Konopa,Seniorki,1989,Poland,61.5,125,135,142.5,142.5,65,70,75,75,145,152.5,160,160,377.5,63,F,SBD,Raw
2,Marika Zandecka,Seniorki,1995,Poland,62.1,117.5,122.5,127.5,127.5,67.5,70,-72.5,70,145,155,-162.5,155,352.5,63,F,SBD,Raw
3,Małgorzata Cieślik,Seniorki,1983,Poland,61.8,120,127.5,-132.5,127.5,70,75,-77.5,75,130,140,-150,140,342.5,63,F,SBD,Raw
4,Daria Walczykiewicz,Seniorki,1982,Poland,61.3,100,105,-110,105,70,72.5,-75,72.5,110,117.5,122.5,122.5,300,63,F,SBD,Raw
5,Patrycja Gibek,Seniorki,1989,Poland,62.9,100,105,112.5,112.5,60,62.5,-65,62.5,110,122.5,-132.5,122.5,297.5,63,F,SBD,Raw
DQ,Justyna Labun,Seniorki,1999,Poland,58.2,-100,-105,-105,,52.5,55,-60,55,125,130,135,135,,63,F,SBD,Raw
1,Karolina Radgowska,Seniorki,1992,Poland,68.1,142.5,150,160,160,62.5,67.5,-70,67.5,175,182.5,192.5,192.5,420,72,F,SBD,Raw
2,Ida Lis,Seniorki,2000,Poland,66.7,145.5,152.5,-160,152.5,70,77.5,82.5,82.5,165,172.5,178,178,413,72,F,SBD,Raw
3,Joanna Niedośpiał,Seniorki,1985,Poland,71.3,120,125,-130,125,60,62.5,-65,62.5,135,-145,145,145,332.5,72,F,SBD,Raw
4,Izabela Chatlińska,Seniorki,1978,Poland,70.6,120,-130,-130,120,55,60,-62.5,60,130,140,150,150,330,72,F,SBD,Raw
5,Kinga Biśta-Gawlik,Seniorki,1983,Poland,69.5,117.5,122.5,-127.5,122.5,70,-75,-75,70,115,120,132.5,132.5,325,72,F,SBD,Raw
6,Anna Pandyra,Seniorki,1995,Poland,67.1,100,107.5,115,115,50,-52.5,55,55,120,132.5,142.5,142.5,312.5,72,F,SBD,Raw
7,Angelika Kaliszewska,Seniorki,1993,Poland,68.3,107.5,112.5,117.5,117.5,60,62.5,65,65,127.5,-135,-137.5,127.5,310,72,F,SBD,Raw
8,Justyna Cierkosz,Seniorki,1992,Poland,64.7,115,122.5,-127.5,122.5,50,55,57.5,57.5,117.5,125,127.5,127.5,307.5,72,F,SBD,Raw
9,Ewa Walentynowicz,Seniorki,1991,Poland,68.8,100,115,-125,115,50,-55,-55,50,120,127.5,-135,127.5,292.5,72,F,SBD,Raw
10,Magdalena Ziętek,Seniorki,1997,Poland,71.4,115,-122.5,-122.5,115,-45,45,50,50,115,-122.5,122.5,122.5,287.5,72,F,SBD,Raw
11,Justyna Kloc,Seniorki,1996,Poland,69.1,90,95,-100,95,52.5,55,-60,55,110,117.5,125,125,275,72,F,SBD,Raw
12,Sylwia Gawęda,Seniorki,1993,Poland,67.1,90,100,110,110,45,50,-55,50,95,102.5,110,110,270,72,F,SBD,Raw
1,Paulina Lechowicz,Seniorki,1996,Poland,81.4,130,137.5,145,145,90,95,-98,95,145,155,162.5,162.5,402.5,84,F,SBD,Raw
2,Karolina Gaczyńska,Seniorki,1992,Poland,77,135,142.5,150,150,72.5,77.5,80,80,142.5,152.5,162.5,162.5,392.5,84,F,SBD,Raw
3,Katarzyna Kaleta,Seniorki,1989,Poland,74.8,-120,120,-130,120,60,62.5,65,65,130,140,-145,140,325,84,F,SBD,Raw
4,Monika Nowak,Seniorki,1978,Poland,75.1,115,120,-125,120,60,62.5,-65,62.5,125,132.5,140,140,322.5,84,F,SBD,Raw
5,Natalia Kobiela,Seniorki,1988,Poland,79.3,-95,100,-105,100,52.5,55,57.5,57.5,110,120,-130,120,277.5,84,F,SBD,Raw
1,Katarzyna Kamieńska,Seniorki,1984,Poland,84.5,110,112.5,120,120,70,-75,-75,70,120,130,140,140,330,84+,F,SBD,Raw
2,Joanna Kruk,Seniorki,1977,Poland,93.7,105,117.5,122.5,122.5,-55,55,-60,55,120,132.5,-145,132.5,310,84+,F,SBD,Raw
3,Kinga Kurowska,Seniorki,1983,Poland,85.4,95,105,112.5,112.5,52.5,57.5,-60,57.5,112.5,125,130,130,300,84+,F,SBD,Raw
1,Małgorzata Otto,Weteranki,1976,Poland,57.8,105,110,-112.5,110,55,57.5,60,60,115,120,125,125,295,,F,SBD,Raw
2,Helena Morawska,Weteranki,1972,Poland,53.7,90,-97.5,-97.5,90,57.5,60,-61,60,107.5,115,120,120,270,,F,SBD,Raw
3,Anna Potocka,Weteranki,1977,Poland,51.3,90,92.5,95,95,50,52.5,-55,52.5,105,112.5,-120,112.5,260,,F,SBD,Raw
4,Izabela Chatlińska,Weteranki,1978,Poland,70.6,120,-130,-130,120,55,60,-62.5,60,130,140,150,150,330,,F,SBD,Raw
5,Anna Tarnowska,Weteranki,1978,Poland,54.7,92.5,97.5,102.5,102.5,35,37.5,40,40,115,120,127.5,127.5,270,,F,SBD,Raw
6,Monika Nowak,Weteranki,1978,Poland,75.1,115,120,-125,120,60,62.5,-65,62.5,125,132.5,140,140,322.5,,F,SBD,Raw
7,Iwona Mazur-Żmuda,Weteranki,1973,Poland,58.15,90,-95,-95,90,-42.5,-42.5,42.5,42.5,105,-115,115,115,247.5,,F,SBD,Raw
8,Magdalena Walkowiak,Weteranki,1973,Poland,66,85,-95,102.5,102.5,40,45,-47.5,45,90,100,115,115,262.5,,F,SBD,Raw
9,Joanna Kruk,Weteranki,1977,Poland,93.7,105,117.5,122.5,122.5,-55,55,-60,55,120,132.5,-145,132.5,310,,F,SBD,Raw
10,Katarzyna Stachyra,Weteranki,1978,Poland,72.1,95,102.5,-105,102.5,47.5,50,52.5,52.5,95,105,115,115,270,,F,SBD,Raw
1,Dawid Król,Juniorki do lat 18,2000,Poland,73.9,200,-210,-210,200,145,150,152.5,152.5,220,235,247.5,247.5,600,74,M,SBD,Raw
2,Bartosz Warszczuk,Juniorki do lat 18,2001,Poland,65.4,170,177.5,185,185,92.5,100,-105,100,195,205,215,215,500,74,M,SBD,Raw
3,Kacper Suchecki,Juniorki do lat 18,2000,Poland,65.7,176,-180,-182.5,176,90,97.5,-100,97.5,200,207.5,-219,207.5,481,74,M,SBD,Raw
4,Kacper Makarowski,Juniorki do lat 18,2001,Poland,71.7,-175,182.5,195,195,105,110,-115,110,185,202.5,-217.5,202.5,507.5,74,M,SBD,Raw
5,Dawid Stachurski,Juniorki do lat 18,2000,Poland,66,155,170,-175,170,90,97.5,102.5,102.5,175,195,-200,195,467.5,74,M,SBD,Raw
6,Patryk Skrzat,Juniorki do lat 18,2000,Poland,73.8,172.5,-180,185,185,92.5,97.5,-100,97.5,185,-195,-195,185,467.5,74,M,SBD,Raw
7,Jakub Grycman,Juniorki do lat 18,2001,Poland,71.9,155,162.5,-167.5,162.5,100,105,-107.5,105,175,190,-192.5,190,457.5,74,M,SBD,Raw
8,Daniel Siedlecki,Juniorki do lat 18,2001,Poland,72,-135,-135,135,135,-100,100,-102.5,100,180,185,190,190,425,74,M,SBD,Raw
9,Tomasz Janas,Juniorki do lat 18,2001,Poland,66.7,125,135,140,140,65,70,-75,70,150,165,170,170,380,74,M,SBD,Raw
10,Szymon Czapliński,Juniorki do lat 18,2002,Poland,67.4,115,127.5,137.5,137.5,75,85,90,90,130,142.5,152.5,152.5,380,74,M,SBD,Raw
11,Jędrzej Gąsienica-Mazurkiewicz,Juniorki do lat 18,2001,Poland,72.5,-140,140,-147.5,140,85,-92.5,-92.5,85,160,-170,-170,160,385,74,M,SBD,Raw
12,Tomasz Gardyński,Juniorki do lat 18,2001,Poland,70,120,130,-140,130,70,75,-77.5,75,145,157.5,160,160,365,74,M,SBD,Raw
1,Jakub Lenart,Juniorki do lat 18,2001,Poland,81.8,210,222.5,228,228,-150,150,-155,150,215,225,-230,225,603,74+,M,SBD,Raw
2,Łukasz Klonowski,Juniorki do lat 18,2000,Poland,91,220,-230,230,230,-145,145,147.5,147.5,250,-257.5,257.5,257.5,635,74+,M,SBD,Raw
3,Karol Wójcik,Juniorki do lat 18,2001,Poland,100.8,207.5,215,-223,215,140,-150,-150,140,250,-261,-261,250,605,74+,M,SBD,Raw
4,Norbert Kaczor,Juniorki do lat 18,2001,Poland,98.9,200,210,220,220,137.5,145,-147.5,145,205,215,222.5,222.5,587.5,74+,M,SBD,Raw
5,Konrad Litwiński,Juniorki do lat 18,2000,Poland,98.1,202.5,215,220,220,120,-127.5,127.5,127.5,205,220,230,230,577.5,74+,M,SBD,Raw
6,Piotr Marzysz,Juniorki do lat 18,2002,Poland,93.4,190,200,210,210,105,110,-115,110,200,210,-215,210,530,74+,M,SBD,Raw
7,Kacper Kosiński,Juniorki do lat 18,2001,Poland,80.5,-165,165,175,175,90,95,-100,95,185,-200,205,205,475,74+,M,SBD,Raw
8,Mateusz Andrzejewski,Juniorki do lat 18,2000,Poland,98.8,190,205,-212.5,205,-100,-102.5,102.5,102.5,215,-235,-235,215,522.5,74+,M,SBD,Raw
9,Maciej Samborski,Juniorki do lat 18,2001,Poland,106.4,190,-195,200,200,130,-135,-135,130,190,200,205,205,535,74+,M,SBD,Raw
10,Adam Hutniczak,Juniorki do lat 18,2002,Poland,91.9,160,170,177.5,177.5,102.5,-107.5,107.5,107.5,170,180,-185,180,465,74+,M,SBD,Raw
11,Łukasz Pluskota,Juniorki do lat 18,2000,Poland,76,140,-150,-150,140,-70,72.5,-75,72.5,170,180,190,190,402.5,74+,M,SBD,Raw
12,Kamil Romańczuk,Juniorki do lat 18,2000,Poland,77.6,140,-150,150,150,75,-85,-85,75,180,-190,-190,180,405,74+,M,SBD,Raw
13,Jakub Ostrowski,Juniorki do lat 18,2001,Poland,82.5,107.5,112.5,117.5,117.5,90,97.5,100,100,150,157.5,162.5,162.5,380,74+,M,SBD,Raw
DQ,Patryk Sadowski,Juniorki do lat 18,2001,Poland,88.8,-195,-195,-195,,,,,,,,,,,74+,M,SBD,Raw
1,Krystian Kopec,Juniorki do lat 20,1998,Poland,80.5,210,228,232.5,232.5,125,132.5,-137.5,132.5,225,235,-242.5,235,600,83,M,SBD,Raw
2,Norbert Jędrzejewski,Juniorki do lat 20,1999,Poland,66.6,140,150,157.5,157.5,105,112.5,117.5,117.5,180,195,-200,195,470,83,M,SBD,Raw
3,Jakub Micał,Juniorki do lat 20,1999,Poland,78.4,165,172.5,180,180,115,-117.5,117.5,117.5,-200,200,-215,200,497.5,83,M,SBD,Raw
4,Michał Barut,Juniorki do lat 20,1999,Poland,81.1,-180,-180,180,180,-95,95,100,100,195,210,225,225,505,83,M,SBD,Raw
5,Norbert Trajer,Juniorki do lat 20,1999,Poland,81.6,170,177.5,180,180,120,-125,-125,120,185,192.5,-205,192.5,492.5,83,M,SBD,Raw
6,Mikołaj Dąbrowski,Juniorki do lat 20,1998,Poland,75.6,140,150,160,160,95,100,-105,100,180,182.5,200,200,460,83,M,SBD,Raw
7,Michał Burzawa,Juniorki do lat 20,1999,Poland,80.5,160,170,-180,170,105,-110,110,110,170,190,-205,190,470,83,M,SBD,Raw
8,Grzegorz Wardach,Juniorki do lat 20,1998,Poland,78.9,152.5,160,167.5,167.5,100,102.5,105,105,165,175,-182.5,175,447.5,83,M,SBD,Raw
9,Szymon Zarębski,Juniorki do lat 20,1999,Poland,80,140,147.5,-155,147.5,80,85,-90,85,170,-185,185,185,417.5,83,M,SBD,Raw
DQ,Kacper Węgrzyn,Juniorki do lat 20,1999,Poland,83,-200,-200,-200,,,,,,,,,,,83,M,SBD,Raw
DQ,Maksymilian Góra,Juniorki do lat 20,1998,Poland,80.5,-160,-170,-170,,115,-120,120,120,185,195,200,200,,83,M,SBD,Raw
DQ,Piotr Bardzo,Juniorki do lat 20,1998,Poland,83,-170,-175,-180,,112.5,117.5,-122.5,117.5,195,210,220,220,,83,M,SBD,Raw
1,Patryk Zaniewski,Juniorki do lat 20,1998,Poland,92.9,230,-242.5,-242.5,230,160,170,-175,170,260,270,-275,270,670,83+,M,SBD,Raw
2,Patryk Romanowicz,Juniorki do lat 20,1998,Poland,89.4,215,225,235,235,125,130,132.5,132.5,250,265,-290,265,632.5,83+,M,SBD,Raw
3,Krzysztof Stangret,Juniorki do lat 20,1998,Poland,102.4,235,246,-250,246,135,142.5,-147.5,142.5,250,270,-280,270,658.5,83+,M,SBD,Raw
4,Mariusz Tworkowski,Juniorki do lat 20,1998,Poland,92.1,215,222.5,232.5,232.5,115,125,132.5,132.5,220,232.5,-242.5,232.5,597.5,83+,M,SBD,Raw
5,Arkadiusz Dziopa,Juniorki do lat 20,1998,Poland,111.7,180,200,210,210,150,-155,155,155,210,225,235,235,600,83+,M,SBD,Raw
6,Kacper Krzyszczuk,Juniorki do lat 20,1998,Poland,92.9,195,205,212.5,212.5,110,115,120,120,200,210,220,220,552.5,83+,M,SBD,Raw
7,Oskar Lebiedziejewski,Juniorki do lat 20,1998,Poland,89.4,160,170,-182.5,170,120,130,-137.5,130,200,210,,210,510,83+,M,SBD,Raw
8,Andrzej Rusek,Juniorki do lat 20,1999,Poland,127.1,200,210,225,225,105,112.5,-120,112.5,205,220,227.5,227.5,565,83+,M,SBD,Raw
9,Mateusz Neuff,Juniorki do lat 20,1998,Poland,85,162.5,170,-177.5,170,85,-92.5,92.5,92.5,185,195,200,200,462.5,83+,M,SBD,Raw
1,Dawid Natorski,Juniorki do lat 23,1995,Poland,65.6,-187.5,187.5,197.5,197.5,125,130,-132.5,130,225,235.5,-250.5,235.5,563,83,M,SBD,Raw
2,Andrzej Krawontka,Juniorki do lat 23,1996,Poland,81.4,220,230,-238,230,140,145,150,150,230,240,250,250,630,83,M,SBD,Raw
3,Mikołaj Wójcicki,Juniorki do lat 23,1997,Poland,70.8,175,185,-195,185,130,-135,135,135,235,245,250,250,570,83,M,SBD,Raw
4,Sebastian Sądej,Juniorki do lat 23,1996,Poland,75.3,205,210,215,215,125,132.5,137.5,137.5,220,230,-235,230,582.5,83,M,SBD,Raw
5,Przemysław Bitner,Juniorki do lat 23,1995,Poland,78.9,195,-202.5,-202.5,195,150,155,-157.5,155,225,230,-235,230,580,83,M,SBD,Raw
6,Jan Duma,Juniorki do lat 23,1997,Poland,81.4,210,-220,-220,210,-120,120,-122.5,120,250,-271,-271,250,580,83,M,SBD,Raw
7,Michał Jasak,Juniorki do lat 23,1997,Poland,64.7,160,-167.5,-170,160,105,-110,110,110,200,212.5,217.5,217.5,487.5,83,M,SBD,Raw
8,Marcin Oleś,Juniorki do lat 23,1997,Poland,82.7,192.5,200,205,205,140,-145,-145,140,210,220,-230,220,565,83,M,SBD,Raw
9,Wiktor Ciachera,Juniorki do lat 23,1996,Poland,82.1,197.5,205,-210,205,120,125,127.5,127.5,222.5,-235,-235,222.5,555,83,M,SBD,Raw
10,Patryk Kubacki,Juniorki do lat 23,1997,Poland,67.8,-160,160,170,170,102.5,105,-107.5,105,180,190,200,200,475,83,M,SBD,Raw
11,Konrad Kościńczyk,Juniorki do lat 23,1996,Poland,79.4,-155,170,177.5,177.5,110,120,125,125,200,210,220,220,522.5,83,M,SBD,Raw
12,Adam Chudaś,Juniorki do lat 23,1996,Poland,75.1,150,162.5,170,170,-85,90,-100,90,185,195,202.5,202.5,462.5,83,M,SBD,Raw
13,Bartłomiej Bigaj,Juniorki do lat 23,1996,Poland,80.7,170,180,-187.5,180,100,105,-110,105,175,185,195,195,480,83,M,SBD,Raw
14,Jakub Tomala,Juniorki do lat 23,1996,Poland,71.5,160,167.5,-172.5,167.5,92.5,95,-97.5,95,165,175,-182.5,175,437.5,83,M,SBD,Raw
16,Damian Wawerek,Juniorki do lat 23,1995,Poland,75.4,140,147.5,155,155,87.5,-95,95,95,180,190,200,200,450,83,M,SBD,Raw
17,Adrian Woźniak,Juniorki do lat 23,1997,Poland,73.6,127.5,135,142.5,142.5,85,90,95,95,155,162.5,-170,162.5,400,83,M,SBD,Raw
DQ,Kamil Kordylasiński,Juniorki do lat 23,1996,Poland,81.5,-170,-170,-170,,100,-102.5,-102.5,100,-195,-195,,,,83,M,SBD,Raw
DQ,Piotr Zawisza,Juniorki do lat 23,1997,Poland,83,190,-200,-200,190,-115,-115,-115,,-200,-215,-215,,,83,M,SBD,Raw
15,Daniel Przybysz,Juniorki do lat 23,1996,Poland,81.3,170,-177.5,-177.5,170,115,120,-122.5,120,175,182.5,185,185,475,83,M,SBD,Raw
1,Adrian Świerczyński,Juniorki do lat 23,1996,Poland,102.3,240,255,-265,255,190,-195,,190,300,310,-315,310,755,83+,M,SBD,Raw
2,Damian Ziemlewski,Juniorki do lat 23,1995,Poland,116,260,270,-280,270,160,170,-175,170,290,-300,,290,730,83+,M,SBD,Raw
3,Dawid Borkowski,Juniorki do lat 23,1995,Poland,91.7,-215,-220,220,220,165,-167.5,-167.5,165,245,255,262.5,262.5,647.5,83+,M,SBD,Raw
4,Jakub Sarnicki,Juniorki do lat 23,1996,Poland,101.4,240,-255,-255,240,-130,135,145,145,265,280,-300,280,665,83+,M,SBD,Raw
5,Seweryn Rzepecki,Juniorki do lat 23,1997,Poland,109.7,230,240,250,250,145,150,155,155,275,-282.5,-282.5,275,680,83+,M,SBD,Raw
6,Przemysław Kłopotowski,Juniorki do lat 23,1996,Poland,93.8,207.5,217.5,225,225,137.5,145,150,150,215,230,250,250,625,83+,M,SBD,Raw
7,Jakub Kuriata,Juniorki do lat 23,1996,Poland,102.1,215,227.5,235,235,145,155,-160,155,225,240,-255,240,630,83+,M,SBD,Raw
8,Marcin Statkiewicz,Juniorki do lat 23,1997,Poland,89.1,200,210,-215,210,130,-135,-135,130,235,245,250,250,590,83+,M,SBD,Raw
9,Mateusz Bagiński,Juniorki do lat 23,1997,Poland,91.7,202.5,212.5,-217.5,212.5,-102.5,105,115,115,237.5,250,260,260,587.5,83+,M,SBD,Raw
10,Adrian Masny,Juniorki do lat 23,1995,Poland,100.9,217.5,227.5,-232.5,227.5,145,-150,-150,145,235,240,-247.5,240,612.5,83+,M,SBD,Raw
11,Konrad Prześrut,Juniorki do lat 23,1995,Poland,113.9,235,245,252.5,252.5,140,-145,-145,140,230,240,-250,240,632.5,83+,M,SBD,Raw
12,Dominik Pawelec,Juniorki do lat 23,1997,Poland,91,187.5,197.5,205,205,120,125,127.5,127.5,217.5,232.5,242.5,242.5,575,83+,M,SBD,Raw
13,Jakub Kała,Juniorki do lat 23,1996,Poland,105.4,200,215,220,220,140,-145,-145,140,220,235,250,250,610,83+,M,SBD,Raw
14,Mateusz Dwornik,Juniorki do lat 23,1995,Poland,103.1,187.5,-197.5,200,200,150,157.5,162.5,162.5,220,230,240,240,602.5,83+,M,SBD,Raw
15,Adam Yousfi,Juniorki do lat 23,1996,Poland,95.1,205,217.5,227.5,227.5,107.5,115,-120,115,215,227.5,237.5,237.5,580,83+,M,SBD,Raw
16,Paweł Dawidziuk,Juniorki do lat 23,1996,Poland,90.2,195,205,-210,205,120,125,-130,125,235,-250,,235,565,83+,M,SBD,Raw
17,Krystian Chmura,Juniorki do lat 23,1997,Poland,86.6,180,190,-195,190,115,122.5,127.5,127.5,200,215,225,225,542.5,83+,M,SBD,Raw
18,Jan Kleta,Juniorki do lat 23,1995,Poland,105.1,200,-205,-210,200,125,130,132.5,132.5,250,-265,-272.5,250,582.5,83+,M,SBD,Raw
19,Paweł Molenda,Juniorki do lat 23,1995,Poland,102,200,210,220,220,125,-132.5,-132.5,125,230,-250,,230,575,83+,M,SBD,Raw
20,Andrzej Popowski,Juniorki do lat 23,1996,Poland,90.1,162.5,170,175,175,142.5,-150,150,150,190,197.5,205,205,530,83+,M,SBD,Raw
21,Mateusz Kossakowski,Juniorki do lat 23,1997,Poland,90.2,170,180,187.5,187.5,115,120,122.5,122.5,205,215,-222.5,215,525,83+,M,SBD,Raw
DQ,Rafał Wróblewski,Juniorki do lat 23,1997,Poland,121.6,-200,-210,-210,,150,,,150,200,-202.5,-202.5,200,,83+,M,SBD,Raw
1,Dariusz Wszoła,Seniorki,1978,Poland,58.6,190,200,207.5,207.5,140,145,-150,145,180,190,-202.5,190,542.5,59,M,SBD,Raw
2,Sławomir Śledź,Seniorki,1976,Poland,58.8,170,180,,180,125,130,,130,190,-200,202.5,202.5,512.5,59,M,SBD,Raw
1,Mariusz Grotkowski,Seniorki,1989,Poland,65.7,200,-205,,200,145,-152,-152.5,145,225,232.5,-237.5,232.5,577.5,66,M,SBD,Raw
2,Dawid Natorski,Seniorki,1995,Poland,65.6,-187.5,187.5,197.5,197.5,125,130,-132.5,130,225,235.5,-250.5,235.5,563,66,M,SBD,Raw
3,Dominik Golak,Seniorki,1982,Poland,65.2,195,202.5,207.5,207.5,110,117.5,122.5,122.5,220,230,-235,230,560,66,M,SBD,Raw
4,Michał Łysoń,Seniorki,1991,Poland,65.2,165,175,-185,175,-120,120,-122.5,120,200,205,-210,205,500,66,M,SBD,Raw
5,Kamil Iwasiów,Seniorki,1984,Poland,65.8,172.5,-180,180,180,122.5,-127.5,-127.5,122.5,-195,-195,195,195,497.5,66,M,SBD,Raw
6,Grzegorz Kępczyński,Seniorki,1981,Poland,65.8,160,170,-175,170,102.5,110,112.5,112.5,190,202.5,-210,202.5,485,66,M,SBD,Raw
7,Kacper Suchecki,Seniorki,2000,Poland,65.7,176,-180,-182.5,176,90,97.5,-100,97.5,200,207.5,-219,207.5,481,66,M,SBD,Raw
8,Łukasz Górecki,Seniorki,1983,Poland,65,160,-167.5,-167.5,160,-97.5,97.5,102.5,102.5,180,190,200,200,462.5,66,M,SBD,Raw
1,Piotr Jakimiuk,Seniorki,1987,Poland,73.8,240,-247.5,-250,240,155,-160,-160,155,255,267.5,-280.5,267.5,662.5,74,M,SBD,Raw
2,Dawid Król,Seniorki,2000,Poland,73.9,200,-210,-210,200,145,150,152.5,152.5,220,235,247.5,247.5,600,74,M,SBD,Raw
3,Grzegorz Uziełło,Seniorki,1975,Poland,68.2,155,165,-170,165,100,105,-107.5,105,220,,,220,490,74,M,SBD,Raw
4,Patryk Kubacki,Seniorki,1997,Poland,67.8,-160,160,170,170,102.5,105,-107.5,105,180,190,200,200,475,74,M,SBD,Raw
DQ,Mikołaj Dąbrowski,Seniorki,1998,Poland,75.6,140,150,160,160,95,100,-105,100,180,182.5,200,200,,83,M,SBD,Raw
DQ,Tomasz Gardyński,Seniorki,2001,Poland,70,120,130,-140,130,70,75,-77.5,75,145,157.5,160,160,,74,M,SBD,Raw
DQ,Krzysztof Faron,Seniorki,1988,Poland,74,-212.5,-212.5,-212.5,,130,137.5,-142.5,137.5,260,-270,-270,260,,74,M,SBD,Raw
1,Daniel Ilczyszyn,Seniorki,1994,Poland,81,232.5,242.5,250,250,162.5,-170,-170,162.5,255,265,270,270,682.5,83,M,SBD,Raw
2,Szymon Grzegoszczyk,Seniorki,1992,Poland,81.6,210,215,-217.5,215,-152.5,152.5,-157.5,152.5,230,240,245,245,612.5,83,M,SBD,Raw
3,Arkadiusz Szymanik,Seniorki,1990,Poland,82.3,200,210,-220,210,150,155,160,160,230,242.5,-247.5,242.5,612.5,83,M,SBD,Raw
4,Mateusz Piórkowski,Seniorki,1991,Poland,82.8,200,205,210,210,150,152.5,-157.5,152.5,230,240,250,250,612.5,83,M,SBD,Raw
5,Szymon Jonczak,Seniorki,1987,Poland,76.6,180,195,-202.5,195,130,140,145,145,220,-232.5,242.5,242.5,582.5,83,M,SBD,Raw
6,Krzysztof Głębocki,Seniorki,1989,Poland,79.8,200,207.5,220,220,120,125,-127.5,125,-240,-240,240,240,585,83,M,SBD,Raw
7,Jan Duma,Seniorki,1997,Poland,81.4,210,-220,-220,210,-120,120,-122.5,120,250,-271,-271,250,580,83,M,SBD,Raw
8,Amadeusz Dziemianko,Seniorki,1993,Poland,82.4,210,-215,-215,210,150,-155,-155,150,215,220,-222.5,220,580,83,M,SBD,Raw
9,Daniel Rynkiewicz,Seniorki,1991,Poland,79.7,160,175,-180,175,135,140,145,145,190,205,215,215,535,83,M,SBD,Raw
10,Michał Janoś,Seniorki,1994,Poland,74.6,-160,167.5,175,175,110,115,-120,115,200,210,220,220,510,83,M,SBD,Raw
11,Tomasz Olejniczak,Seniorki,1990,Poland,81.9,170,175,-180,175,-120,120,-125,120,200,210,-220,210,505,83,M,SBD,Raw
12,Mateusz Wawrzyniak,Seniorki,1990,Poland,75.2,140,145,150,150,115,120,-122.5,120,-175,180,185,185,455,83,M,SBD,Raw
DQ,Maksymilian Góra,Seniorki,1998,Poland,80.5,-160,-170,-170,,115,-120,120,120,185,195,200,200,,83,M,SBD,Raw
DQ,Piotr Barzdo,Seniorki,1998,Poland,80.1,-170,-175,-180,,112.5,117.5,-122.5,117.5,195,210,220,220,,83,M,SBD,Raw
DQ,Sławomir Litkowiec,Seniorki,1986,Poland,82,220,-227.5,227.5,227.5,-165,-165,-165,,-235,-235,-235,,,83,M,SBD,Raw
DQ,Jacek Spychała,Seniorki,1978,Poland,81.8,245,260,270,270,160,167.5,172.5,172.5,-280,-280,-280,,,83,M,SBD,Raw
1,Mariusz Krzyszczak,Seniorki,1992,Poland,91.5,250,255,260,260,172.5,175,,175,290,-300,-300,290,725,93,M,SBD,Raw
2,Mateusz Czechyra,Seniorki,1993,Poland,91.2,245,260,-265,260,170,180,-185,180,270,-290,-290,270,710,93,M,SBD,Raw
3,Maciej Sochacki,Seniorki,1985,Poland,92.1,240,250,252.5,252.5,185,192.5,-195,192.5,240,255,265,265,710,93,M,SBD,Raw
4,Michał Kempys,Seniorki,1988,Poland,92.8,235,242.5,-247.5,242.5,165,175,-180,175,290,-300,-300,290,707.5,93,M,SBD,Raw
5,Marcin Kosut,Seniorki,1988,Poland,92,255,262.5,267.5,267.5,160,165,-170,165,255,265,-275,265,697.5,93,M,SBD,Raw
6,Łukasz Matwin,Seniorki,1982,Poland,84.8,235,-245,-245,235,145,150,-152.5,150,295,305,-312.5,305,690,93,M,SBD,Raw
7,Dariusz Konopelski,Seniorki,1992,Poland,90,-257.5,265,275,275,152.5,-160,-160,152.5,240,252.5,-272.5,252.5,680,93,M,SBD,Raw
8,Tomasz Rumiński,Seniorki,1987,Poland,92.1,235,245,-250,245,155,-165,-165,155,265,275,-290,275,675,93,M,SBD,Raw
9,Patryk Zaniewski,Seniorki,1998,Poland,92.9,230,-242.5,-242.5,230,160,170,-175,170,260,270,-275,270,670,93,M,SBD,Raw
10,Paweł Przybyłowicz,Seniorki,1990,Poland,92.5,205,220,225,225,175,180,-182.5,180,230,240,245,245,650,93,M,SBD,Raw
11,Patryk Romanowicz,Seniorki,1998,Poland,89.4,215,225,235,235,125,130,132.5,132.5,250,265,-290,265,632.5,93,M,SBD,Raw
12,Daniel Augustyniak,Seniorki,1993,Poland,92.6,-215,220,230,230,135,142.5,147.5,147.5,240,-250,-250,240,617.5,93,M,SBD,Raw
13,Patryk Zagórski,Seniorki,1994,Poland,90.6,210,220,227.5,227.5,130,135,140,140,225,240,-245,240,607.5,93,M,SBD,Raw
14,Witold Chłus,Seniorki,1992,Poland,88.9,-220,220,-230,220,130,135,140,140,-240,-240,240,240,600,93,M,SBD,Raw
15,Oskar Bar,Seniorki,1994,Poland,84.6,-210,-210,220,220,120,-125,-135,120,230,240,-250,240,580,93,M,SBD,Raw
16,Mateusz Ząbczyk,Seniorki,1994,Poland,87.7,160,170,180,180,122.5,130,-135,130,220,240,250,250,560,93,M,SBD,Raw
17,Adrian Szyrwiel,Seniorki,1983,Poland,86.2,165,180,-190,180,140,-145,-145,140,200,215,-230,215,535,93,M,SBD,Raw
18,Wojciech Kotecki,Seniorki,1989,Poland,88.4,140,155,167.5,167.5,-115,115,120,120,170,190,205,205,492.5,93,M,SBD,Raw
DQ,Marcin Budek,Seniorki,1994,Poland,92.1,220,-230,-230,220,-125,-125,-125,,,,,,,93,M,SBD,Raw
1,Krzysztof Wierzbicki,Seniorki,1990,Poland,99.7,280,295,-305,295,185,195,-202.5,195,355,-410,,355,845,105,M,SBD,Raw
2,Adrian Świerczyński,Seniorki,1996,Poland,102.3,240,255,-265,255,190,-195,,190,300,310,-315,310,755,105,M,SBD,Raw
3,Marcin Bogacki,Seniorki,1994,Poland,102,250,270,-275,270,170,182.5,-190,182.5,260,280,285,285,737.5,105,M,SBD,Raw
4,Dawid Krasnopolski,Seniorki,1982,Poland,103,255,262.5,-270,262.5,150,157.5,162.5,162.5,280,290,292.5,292.5,717.5,105,M,SBD,Raw
5,Szczepan Zimmermann,Seniorki,1990,Poland,93.2,240,255,-260,255,150,155,-160,155,260,275,277.5,277.5,687.5,105,M,SBD,Raw
6,Sebastian Grzywa,Seniorki,1985,Poland,97.2,220,240,-250,240,140,-160,160,160,240,265,-275,265,665,105,M,SBD,Raw
7,Krzysztof Kluczny,Seniorki,1992,Poland,103.9,210,220,230,230,-155,-155,155,155,255,270,277.5,277.5,662.5,105,M,SBD,Raw
8,Przemysław Kłopotowski,Seniorki,1996,Poland,93.8,207.5,217.5,225,225,137.5,145,150,150,215,230,250,250,625,105,M,SBD,Raw
9,Grzegorz Dymarski,Seniorki,1993,Poland,100.1,200,210,-215,210,132.5,-137.5,-137.5,132.5,230,240,-257.5,240,582.5,105,M,SBD,Raw
10,Konrad Litwiński,Seniorki,2000,Poland,98.1,202.5,215,220,220,120,-127.5,127.5,127.5,205,220,230,230,577.5,105,M,SBD,Raw
11,Andrzej Ratajczyk,Seniorki,1953,Poland,103.6,-205,205,210,210,-125,125,135,135,215,220,-225,220,565,105,M,SBD,Raw
12,Tobiasz Gajak,Seniorki,1986,Poland,101.7,195,-205,205,205,125,-132.5,-132.5,125,220,230,-240,230,560,105,M,SBD,Raw
13,Michał Mokwiński,Seniorki,1992,Poland,103.5,180,190,-197.5,190,140,147.5,152.5,152.5,-195,195,215,215,557.5,105,M,SBD,Raw
14,Marcin Szafraniec,Seniorki,1989,Poland,102.9,190,200,210,210,100,105,-115,105,170,180,190,190,505,105,M,SBD,Raw
DQ,Jakub Kała,Seniorki,1996,Poland,105.4,200,215,220,220,140,-145,-145,140,220,235,250,250,,120,M,SBD,Raw
DQ,Krystian Klich,Seniorki,1978,Poland,107.8,170,180,-200,180,150,160,-170,160,195,205,215,215,,120,M,SBD,Raw
DQ,Piotr Majchrzak,Seniorki,1986,Poland,100.8,135,142.5,-145,142.5,105,112.5,117.5,117.5,165,180,190,190,,105,M,SBD,Raw
1,Piotr Sadowski #1,Seniorki,1993,Poland,119.8,320,-340,340,340,215,-225,,215,320,340,-351,340,895,120,M,SBD,Raw
2,Mateusz Grzesik,Seniorki,1989,Poland,117.3,285,300,305,305,200,205,-210,205,315,330,340,340,850,120,M,SBD,Raw
3,Łukasz Nizio,Seniorki,1992,Poland,115.4,285,-300,-300,285,185,195,-202.5,195,295,-300,,295,775,120,M,SBD,Raw
4,Robert Pleskacz,Seniorki,1994,Poland,110.9,245,260,-275,260,150,160,170,170,255,275,300,300,730,120,M,SBD,Raw
5,Jacek Juszczyk,Seniorki,1994,Poland,111.2,235,245,-250,245,140,150,160,160,235,250,260,260,665,120,M,SBD,Raw
6,Marek Micewicz,Seniorki,1994,Poland,116.5,235,245,250,250,165,170,175,175,235,245,-252.5,245,670,120,M,SBD,Raw
7,Arkadiusz Bembenek,Seniorki,1972,Poland,114,185,195,205,205,130,135,145,145,210,225,240,240,590,120,M,SBD,Raw
1,Przemysław Tomica,Seniorki,1987,Poland,122,260,275,282.5,282.5,175,182.5,190,190,250,277.5,300,300,772.5,120+,M,SBD,Raw
2,Władysław Zhuk,Seniorki,1992,Poland,120.1,265,275,-280,275,185,190,-195,190,270,285,-295,285,750,120+,M,SBD,Raw
3,Sebastian Sobiech,Seniorki,1980,Poland,120.1,260,275,-277.5,275,170,-180,180,180,-270,270,280,280,735,120+,M,SBD,Raw
4,Rafał Lipka,Seniorki,1975,Poland,122,255,-260,,255,160,167.5,-172.5,167.5,255,-257.5,262.5,262.5,685,120+,M,SBD,Raw
5,Arkadiusz Szymoniak,Seniorki,1993,Poland,122.7,225,240,-250,240,150,160,-165,160,270,-285,-285,270,670,120+,M,SBD,Raw
1,Dariusz Wszoła,Weteranki 40-49 lat,1978,Poland,58.6,190,200,207.5,207.5,140,145,-150,145,180,190,-202.5,190,542.5,83,M,SBD,Raw
2,Sławomir Śledź,Weteranki 40-49 lat,1976,Poland,58.8,170,180,,180,125,130,,130,190,-200,202.5,202.5,512.5,83,M,SBD,Raw
3,Sebastian Stępniak,Weteranki 40-49 lat,1974,Poland,82.5,175,182.5,185,185,105,110,-112.5,110,220,225,230,230,525,83,M,SBD,Raw
4,Łukasz Głowacz,Weteranki 40-49 lat,1976,Poland,82.9,162.5,-172.5,-172.5,162.5,120,125,-130,125,195,-202.5,-202.5,195,482.5,83,M,SBD,Raw
5,Jacek Spychała,Weteranki 40-49 lat,1978,Poland,81.8,245,260,270,270,160,167.5,172.5,172.5,-280,-280,-280,,442.5,83,M,SBD,Raw
1,Marcin Górka,Weteranki 40-49 lat,1976,Poland,106.6,225,240,252.5,252.5,170,175,-180,175,240,255,273,273,700.5,83+,M,SBD,Raw
2,Rafał Lipka,Weteranki 40-49 lat,1975,Poland,122,255,-260,,255,160,167.5,-172.5,167.5,255,-257.5,262.5,262.5,685,83+,M,SBD,Raw
3,Daniel Górski,Weteranki 40-49 lat,1978,Poland,90.3,200,-210,-210,200,150,155,-160,155,240,250,260,260,615,83+,M,SBD,Raw
4,Łukasz Chruścicki,Weteranki 40-49 lat,1978,Poland,147,245,255,265,265,140,-150,-150,140,240,265,285.5,285.5,690.5,83+,M,SBD,Raw
5,Jakub Koryzna,Weteranki 40-49 lat,1976,Poland,104.9,180,-195,195,195,175,185,,185,220,235,-245,235,615,83+,M,SBD,Raw
6,Arkadiusz Bembenek,Weteranki 40-49 lat,1972,Poland,114,185,195,205,205,130,135,145,145,210,225,240,240,590,83+,M,SBD,Raw
7,Krystian Klich,Weteranki 40-49 lat,1978,Poland,107.8,170,180,-200,180,150,160,-170,160,195,205,215,215,555,83+,M,SBD,Raw
1,Marian Piwowarczyk,Weteranki 50-59 lat,1961,Poland,64.7,100,110,-115,110,95,-97.5,-97.5,95,140,160,172.5,172.5,377.5,66,M,SBD,Raw
1,Adam Jasiński,Weteranki 60-69 lat,1951,Poland,79.8,200,210,-215,210,105,112.5,115,115,200,207.5,210,210,535,74+,M,SBD,Raw
2,Andrzej Ratajczyk,Weteranki 60-69 lat,1953,Poland,103.6,-205,205,210,210,-125,125,135,135,215,220,-225,220,565,74+,M,SBD,Raw
