Division,WeightClassKg,Place,Name,Team,BodyweightKg,Best3SquatKg,Best3BenchKg,Best3DeadliftKg,TotalKg,Equipment,Event,Sex
Boys,55.79,1,Michael Davis #1,San Antonio East Central,51.8,113.4,58.97,136.08,308.44,Single-ply,SBD,M
Boys,51.71,2,Taylor Nobles,Yoakum,49.8,124.74,52.16,124.74,301.64,Single-ply,SBD,M
Boys,51.71,3,Dylan Torres,Runge,51.07,115.67,54.43,122.47,292.57,Single-ply,SBD,M
Boys,51.71,4,Buster Dodge,Refugio,47.45,97.52,49.9,102.06,249.48,Single-ply,SBD,M
Boys,55.79,1,Dillon Barrow,Yorktown,54.88,124.74,63.5,127.01,315.25,Single-ply,SBD,M
Boys,55.79,2,Allan Patty,San Antonio East Central,55.34,108.86,49.9,113.4,272.16,Single-ply,SBD,M
Boys,55.79,3,Trevor Moczygemba,Poth,53.89,95.25,52.16,102.06,249.48,Single-ply,SBD,M
Boys,55.79,DQ,Harvey Jackson,San Antonio East Central,54.52,136.08,,,,Single-ply,SBD,M
Boys,59.87,DQ,Connor Cross,Cuero,55.97,138.35,63.5,,,Single-ply,SBD,M
Boys,55.79,DQ,Darion McMahan,Stockdale,55.79,,,,,Single-ply,SBD,M
Boys,59.87,1,Michael Casarez,Three Rivers,56.7,172.37,68.04,176.9,417.3,Single-ply,SBD,M
Boys,59.87,2,Peter Martinez,Yorktown,58.97,147.42,97.52,172.37,417.3,Single-ply,SBD,M
Boys,59.87,3,Carbe Seaman,Saint Jo,59.69,154.22,102.06,158.76,415.04,Single-ply,SBD,M
Boys,59.87,4,Matt Rodriguez,San Antonio East Central,59.06,158.76,83.91,158.76,401.43,Single-ply,SBD,M
Boys,59.87,5,Dean Boniface,Goliad,59.6,140.61,86.18,172.37,399.16,Single-ply,SBD,M
Boys,67.13,6,Donald Price,San Antonio East Central,60.06,147.42,65.77,140.61,353.8,Single-ply,SBD,M
Boys,67.13,7,Myles Parker,Goliad,59.96,124.74,74.84,142.88,342.46,Single-ply,SBD,M
Boys,67.13,DQ,Joe Boone,Goliad,59.96,136.08,,,,Single-ply,SBD,M
Boys,59.87,DQ,Aaron Prasek,Hallettsville,59.87,111.13,81.65,,,Single-ply,SBD,M
Boys,59.87,DQ,Tj Romero,Jourdanton,56.52,131.54,,,,Single-ply,SBD,M
Boys,59.87,DQ,Miguel Hernandez,Nixon Smiley,58.6,133.81,,,,Single-ply,SBD,M
Boys,59.87,DQ,Thomas Garza,San Antonio East Central,59.87,149.69,99.79,,,Single-ply,SBD,M
Boys,67.13,1,Marty Garza,Jourdanton,66.13,215.46,124.74,204.12,544.31,Single-ply,SBD,M
Boys,67.13,2,Gino Dodge,Refugio,65.68,204.12,111.13,192.78,508.02,Single-ply,SBD,M
Boys,74.84,3,Robert Skellion,Conroe Caney Creek,67.22,181.44,111.13,183.7,476.27,Single-ply,SBD,M
Boys,67.13,4,Ryan Berkovsky,Yoakum,63.41,176.9,92.99,199.58,469.47,Single-ply,SBD,M
Boys,74.84,5,Aaron Lopez,Jourdanton,67.22,195.04,97.52,170.1,462.66,Single-ply,SBD,M
Boys,67.13,6,Randy Solis,Runge,65.77,163.29,81.65,176.9,421.84,Single-ply,SBD,M
Boys,67.13,7,Daniel Rodriguez #11,San Antonio East Central,66.68,181.44,81.65,158.76,421.84,Single-ply,SBD,M
Boys,67.13,8,Koby Caka,Yoakum,65.41,158.76,86.18,158.76,403.7,Single-ply,SBD,M
Boys,67.13,9,Sergio Edison,Goliad,63.05,142.88,88.45,170.1,401.43,Single-ply,SBD,M
Boys,74.84,10,Jacob Escobar,San Antonio East Central,67.31,145.15,79.38,154.22,378.75,Single-ply,SBD,M
Boys,67.13,11,Justin Organ,San Antonio East Central,65.95,142.88,74.84,154.22,371.95,Single-ply,SBD,M
Boys,67.13,12,Brandon Thompson,Refugio,63.05,136.08,74.84,142.88,353.8,Single-ply,SBD,M
Boys,67.13,13,Dustin Boniface,Goliad,63.23,122.47,86.18,142.88,351.53,Single-ply,SBD,M
Boys,74.84,14,Troy Langlinais,Goliad,67.31,115.67,83.91,142.88,342.46,Single-ply,SBD,M
Boys,67.13,15,Lucas Alvear,Runge,60.6,127.01,74.84,138.35,340.19,Single-ply,SBD,M
Boys,67.13,16,Glen Wineman,Refugio,61.6,127.01,54.43,122.47,303.91,Single-ply,SBD,M
Boys,67.13,17,Patrick Jarratt,Three Rivers,64.68,117.93,47.63,129.27,294.84,Single-ply,SBD,M
Boys,67.13,18,Perry Bone,Stockdale,64.32,113.4,65.77,104.33,283.5,Single-ply,SBD,M
Boys,67.13,19,Ricky Reeder,Yorktown,65.32,92.99,63.5,124.74,281.23,Single-ply,SBD,M
Boys,82.1,1,Christian Nelson,Poth,74.93,206.38,120.2,197.31,523.9,Single-ply,SBD,M
Boys,74.84,2,Hunter Noack,Gonzales,72.94,190.51,95.25,204.12,489.88,Single-ply,SBD,M
Boys,74.84,3,Levi House,Jourdanton,72.48,215.46,81.65,188.24,485.34,Single-ply,SBD,M
Boys,82.1,4,Andrew Jimenez,Yoakum,74.93,195.04,104.33,176.9,476.27,Single-ply,SBD,M
Boys,82.1,5,Jonathan Hennessey,Saint Jo,74.93,172.37,120.2,172.37,464.93,Single-ply,SBD,M
Boys,74.84,6,Paul Saldana,Nixon Smiley,73.66,176.9,97.52,183.7,458.13,Single-ply,SBD,M
Boys,74.84,7,Cole Stremmel,Yorktown,73.94,183.7,108.86,158.76,451.32,Single-ply,SBD,M
Boys,74.84,8,Rex Kutzer,Yoakum,74.75,165.56,92.99,158.76,417.3,Single-ply,SBD,M
Boys,74.84,9,David Clay,San Antonio East Central,72.3,140.61,81.65,161.03,383.29,Single-ply,SBD,M
Boys,74.84,10,Mark Saldana,Nixon Smiley,71.03,136.08,92.99,142.88,371.95,Single-ply,SBD,M
Boys,74.84,11,Derek Franke,Yorktown,72.57,136.08,86.18,149.69,371.95,Single-ply,SBD,M
Boys,74.84,12,Nathaniel Alvarez,Kenedy,72.67,145.15,83.91,142.88,371.95,Single-ply,SBD,M
Boys,74.84,13,Wyatt Gabrysch,Stockdale,74.84,138.35,70.31,154.22,362.87,Single-ply,SBD,M
Boys,74.84,14,Lane Strieber,Yorktown,70.31,117.93,74.84,154.22,347,Single-ply,SBD,M
Boys,74.84,15,Tanner Maxwell,Stockdale,68.4,113.4,58.97,149.69,322.05,Single-ply,SBD,M
Boys,74.84,DQ,Michael Coffman,Yorktown,72.57,,,,,Single-ply,SBD,M
Boys,74.84,DQ,Tanner Heffner,Schulenburg,74.84,185.97,,,,Single-ply,SBD,M
Boys,82.1,1,Chase Wiatrek,Poth,80.74,201.85,111.13,213.19,526.17,Single-ply,SBD,M
Boys,82.1,2,Ian Luechemeyer,Cuero,80.1,161.03,122.47,204.12,487.61,Single-ply,SBD,M
Boys,82.1,3,Henry Vasquez,San Antonio East Central,82.01,195.04,97.52,174.63,467.2,Single-ply,SBD,M
Boys,82.1,4,Josh Falcon,San Antonio East Central,78.47,163.29,95.25,190.51,449.06,Single-ply,SBD,M
Boys,82.1,5,Ryan Anderson,Poth,75.75,147.42,97.52,181.44,426.38,Single-ply,SBD,M
Boys,82.1,6,Christian Rodriguez,Stockdale,78.38,136.08,65.77,136.08,337.93,Single-ply,SBD,M
Boys,82.1,DQ,Hector Alvarado,Stockdale,81.28,170.1,,,,Single-ply,SBD,M
Boys,82.1,DQ,Jacob Muniz,Three Rivers,78.93,,,,,Single-ply,SBD,M
Boys,82.1,DQ,Chad Brockman,Saint Jo,78.93,158.76,92.99,,,Single-ply,SBD,M
Boys,82.1,DQ,Afrian Molina,Gonzales,76.02,,,,,Single-ply,SBD,M
Boys,89.81,1,Paul Dupart,San Antonio East Central,89.81,247.21,131.54,201.85,580.6,Single-ply,SBD,M
Boys,89.81,2,Korry Huddleston,Yorktown,88,226.8,129.27,197.31,553.38,Single-ply,SBD,M
Boys,89.81,3,Nick Davila,Jourdanton,85,204.12,145.15,188.24,537.51,Single-ply,SBD,M
Boys,89.81,4,Roman Garcia #3,Kenedy,84.55,181.44,133.81,188.24,503.49,Single-ply,SBD,M
Boys,89.81,5,Santos Dominguez,San Antonio East Central,87.54,181.44,102.06,208.65,492.15,Single-ply,SBD,M
Boys,89.81,6,Jason Castillo,Cuero,86.55,174.63,115.67,199.58,489.88,Single-ply,SBD,M
Boys,89.81,7,Samuel Arce,Nixon Smiley,82.55,156.49,92.99,179.17,428.64,Single-ply,SBD,M
Boys,89.81,8,Daniel Diaz,Three Rivers,89.27,170.1,97.52,151.95,419.57,Single-ply,SBD,M
Boys,89.81,9,Cameron Berger,Goliad,88.45,145.15,88.45,156.49,390.09,Single-ply,SBD,M
Boys,89.81,DQ,Chris Brockman,Saint Jo,86.18,226.8,,,,Single-ply,SBD,M
Boys,89.81,DQ,John Resendez,Saint Jo,84.37,106.59,,,,Single-ply,SBD,M
Boys,99.79,1,Dylan Pekar,Yoakum,94.44,226.8,124.74,206.38,557.92,Single-ply,SBD,M
Boys,99.79,2,Seferino Vargas,Refugio,92.9,215.46,115.67,183.7,514.83,Single-ply,SBD,M
Boys,99.79,3,Abe Sanchez,San Antonio East Central,98.07,215.46,106.59,190.51,512.56,Single-ply,SBD,M
Boys,99.79,4,MacNeal Price,San Antonio East Central,97.07,190.51,99.79,199.58,489.88,Single-ply,SBD,M
Boys,99.79,5,Chris McCumber,San Antonio East Central,93.08,174.63,92.99,158.76,426.38,Single-ply,SBD,M
Boys,99.79,6,Nathan Morin,Three Rivers,91.17,170.1,86.18,158.76,415.04,Single-ply,SBD,M
Boys,99.79,7,Craig Kilgore,Poth,91.81,147.42,77.11,145.15,369.68,Single-ply,SBD,M
Boys,99.79,DQ,Jason Dunning,Schulenburg,91.63,,,,,Single-ply,SBD,M
Boys,109.77,1,Preston Turner #3,Victoria Memorial,109.41,317.51,208.65,272.16,798.32,Single-ply,SBD,M
Boys,109.77,2,Brandon Brashear,Jourdanton,108.59,258.55,172.37,235.87,666.78,Single-ply,SBD,M
Boys,109.77,3,Dustin Catchings,Gonzales,107.68,249.48,140.61,260.82,650.91,Single-ply,SBD,M
Boys,109.77,4,Dillon Novosad,Yoakum,101.33,244.94,140.61,244.94,630.49,Single-ply,SBD,M
Boys,109.77,5,Kohlton Tegeler,Victoria Memorial,108.86,238.14,165.56,222.26,625.96,Single-ply,SBD,M
Boys,109.77,6,Logan Pickett,Cuero,100.43,244.94,145.15,226.8,616.89,Single-ply,SBD,M
Boys,109.77,7,Brodie Ruiz,Three Rivers,109.5,226.8,106.59,174.63,508.02,Single-ply,SBD,M
Boys,109.77,8,Lance Machicek,Schulenburg,108.95,167.83,127.01,206.38,501.22,Single-ply,SBD,M
Boys,109.77,9,Garrett Egg,Cuero,106.59,185.97,113.4,199.58,498.95,Single-ply,SBD,M
Boys,109.77,DQ,Dillan Johnson,Yorktown,102.97,,,,,Single-ply,SBD,M
Boys,124.74,1,Richie Guerrero,Yoakum,120.84,278.96,149.69,240.4,669.05,Single-ply,SBD,M
Boys,124.74,2,Glen Salisbury,Conroe Caney Creek,114.49,249.48,158.76,233.6,641.83,Single-ply,SBD,M
Boys,124.74,3,Joey Guzman,Del Rio,120.93,247.21,158.76,233.6,639.57,Single-ply,SBD,M
Boys,124.74,4,Scott Richter,Yoakum,114.67,258.55,163.29,213.19,635.03,Single-ply,SBD,M
Boys,124.74,5,Chris Caskey,Cuero,123.38,249.48,142.88,215.46,607.81,Single-ply,SBD,M
Boys,124.74,6,Danny Alvarez,San Antonio East Central,119.2,240.4,136.08,174.63,551.11,Single-ply,SBD,M
Boys,124.74,7,Clark Pustka,Goliad,111.31,199.58,142.88,188.24,530.7,Single-ply,SBD,M
Boys,124.74,8,Edward Lopez,San Antonio East Central,110.95,208.65,122.47,185.97,517.1,Single-ply,SBD,M
Boys,124.74,9,Jonathan Galindo,Jourdanton,116.57,190.51,117.93,172.37,480.81,Single-ply,SBD,M
Boys,124.74,10,Robby Medrano,Saint Jo,122.65,204.12,83.91,181.44,469.47,Single-ply,SBD,M
Boys,124.74,11,Chris Sliger,Yorktown,117.48,156.49,108.86,199.58,464.93,Single-ply,SBD,M
Boys,124.74,12,Garrett Friedrichs,Goliad,122.38,192.78,113.4,158.76,464.93,Single-ply,SBD,M
Boys,124.74,13,Nathan Hernandez,Kenedy,117.84,158.76,90.72,136.08,385.55,Single-ply,SBD,M
Boys,124.74,DQ,Wade Perry,Saint Jo,113.85,,,,,Single-ply,SBD,M
Boys,124.74+,1,Cody Britton,Conroe Caney Creek,140.16,254.01,145.15,206.38,605.55,Single-ply,SBD,M
Boys,124.74+,2,Darrel Senney,Del Rio,136.26,251.74,149.69,192.78,594.21,Single-ply,SBD,M
Boys,124.74+,3,Manuel Tijerina,Jourdanton,125.37,215.46,117.93,238.14,571.53,Single-ply,SBD,M
Boys,124.74+,4,Tyler Egger,Yorktown,125.19,226.8,136.08,199.58,562.45,Single-ply,SBD,M
Boys,124.74+,5,John Sirilo,Schulenburg,125.65,231.33,129.27,183.7,544.31,Single-ply,SBD,M
Boys,124.74+,6,Mark Alarcon,San Antonio East Central,136.44,231.33,117.93,192.78,542.04,Single-ply,SBD,M
Boys,124.74+,7,Tyler Verette,Jourdanton,125.37,192.78,124.74,197.31,514.83,Single-ply,SBD,M
Boys,124.74+,8,Kevin Camacho,Goliad,131.54,163.29,102.06,136.08,401.43,Single-ply,SBD,M
