Division,WeightClassKg,Place,Name,Team,BodyweightKg,Best3SquatKg,Best3BenchKg,Best3DeadliftKg,TotalKg,Equipment,Event,Sex,BirthDate
Boys,51.71,1,Austin Cuthberson,Van Alstyne,50.58,199.58,92.99,147.42,439.98,Single-ply,SBD,M,
Boys,51.71,2,Alex Labrada,Whitesboro,51.66,142.88,74.84,151.95,369.68,Single-ply,SBD,M,
Boys,51.71,3,Payton Cole,Bells,45.22,122.47,70.31,127.01,319.78,Single-ply,SBD,M,
Boys,51.71,4,Erik Tapia,Gunter,51.71,122.47,70.31,127.01,319.78,Single-ply,SBD,M,
Boys,51.71,5,Trenton Cottrell,Paradise,50.48,122.47,61.23,129.27,312.98,Single-ply,SBD,M,
Boys,51.71,6,Miguel Olivares,Nocona,51.66,106.59,65.77,140.61,312.98,Single-ply,SBD,M,
Boys,51.71,7,Nathan Pollock,Paradise,50.44,122.47,54.43,102.06,278.96,Single-ply,SBD,M,
Boys,51.71,8,Gage Woodring,Millsap,46.49,108.86,47.63,95.25,251.74,Single-ply,SBD,M,
Boys,51.71,9,Brayden Annis,Ponder,48.81,88.45,49.9,90.72,229.06,Single-ply,SBD,M,
Boys,51.71,10,Adam Russell,Howe,43.64,63.5,27.22,72.57,163.29,Single-ply,SBD,M,
Boys,51.71,DQ,Raiden Brezina,Bowie,50.71,,,,,Single-ply,SBD,M,
Boys,55.79,1,Dalton Medlock,Boyd,55.43,158.76,72.57,161.03,392.36,Single-ply,SBD,M,
Boys,55.79,2,Armando Carrillo,Bells,55.79,142.88,79.38,163.29,385.55,Single-ply,SBD,M,
Boys,55.79,3,Tucker Abbott,Alvord,53.98,142.88,72.57,158.76,374.21,Single-ply,SBD,M,
Boys,55.79,4,Conner Jacobs,Whitesboro,55.29,142.88,68.04,145.15,356.07,Single-ply,SBD,M,
Boys,55.79,5,Dorian Ellis,Nocona,55.34,127.01,70.31,158.76,356.07,Single-ply,SBD,M,
Boys,55.79,6,Trey Orsini,Strawn,55.61,127.01,68.04,149.69,344.73,Single-ply,SBD,M,
Boys,55.79,7,Justin Bague,Tom Bean,53.98,136.08,63.5,142.88,342.46,Single-ply,SBD,M,
Boys,55.79,8,Wyatt Abbott,Alvord,54.84,133.81,61.23,147.42,342.46,Single-ply,SBD,M,
Boys,55.79,9,Jack Lifsey,Tom Bean,53.71,136.08,61.23,122.47,319.78,Single-ply,SBD,M,
Boys,55.79,10,Dominic Thomas,Archer City,54.16,111.13,83.91,122.47,317.51,Single-ply,SBD,M,
Boys,55.79,DQ,Destin Warr,Callisburg,52.8,142.88,81.65,,,Single-ply,SBD,M,
Boys,59.87,1,Ignacio Salas,Whitesboro,59.78,219.99,124.74,197.31,542.04,Single-ply,SBD,M,
Boys,59.87,2,Edwin Rodriguez,Pilot Point,59.87,222.26,104.33,199.58,526.17,Single-ply,SBD,M,
Boys,59.87,3,Hunter Burton,Millsap,58.74,195.04,115.67,158.76,469.47,Single-ply,SBD,M,
Boys,59.87,4,Roman Rivas,Bowie,59.33,181.44,102.06,181.44,464.93,Single-ply,SBD,M,
Boys,59.87,5,Asher Contreras,Whitesboro,58.51,174.63,81.65,195.04,451.32,Single-ply,SBD,M,
Boys,59.87,6,Dj Fogleman,Whitewright,57.79,154.22,90.72,145.15,390.09,Single-ply,SBD,M,
Boys,59.87,7,Keane Ortega,Sadler S & S Cons,59.15,131.54,77.11,170.1,378.75,Single-ply,SBD,M,
Boys,59.87,8,Colton Covington,Bowie,57.79,138.35,81.65,145.15,365.14,Single-ply,SBD,M,
Boys,59.87,9,Trevor Martin,Pilot Point,58.06,142.88,72.57,145.15,360.61,Single-ply,SBD,M,
Boys,59.87,10,Jimmy Rollins,Van Alstyne,59.42,129.27,68.04,158.76,356.07,Single-ply,SBD,M,
Boys,59.87,11,Mason Hodges,Ponder,59.87,136.08,77.11,129.27,342.46,Single-ply,SBD,M,
Boys,59.87,DQ,Jarrett Morris,Paradise,59.87,185.97,90.72,,,Single-ply,SBD,M,
Boys,67.13,1,Chris Graham #1,Wichita Falls City View,66.41,260.82,124.74,233.6,619.15,Single-ply,SBD,M,
Boys,67.13,2,Nick Rhinehart,Bonham,66.72,195.04,138.35,181.44,514.83,Single-ply,SBD,M,
Boys,67.13,3,Jacob Smith,Whitesboro,66.63,204.12,115.67,181.44,501.22,Single-ply,SBD,M,
Boys,67.13,4,Jw Montgomery,Strawn,66.72,195.04,104.33,181.44,480.81,Single-ply,SBD,M,
Boys,67.13,5,Mike Martinez,Jacksboro,66.77,185.97,102.06,181.44,469.47,Single-ply,SBD,M,
Boys,67.13,6,John Nabors,Wichita Falls City View,66.04,172.37,104.33,185.97,462.66,Single-ply,SBD,M,
Boys,67.13,7,Greg Turner,Leonard,64.59,190.51,90.72,174.63,455.86,Single-ply,SBD,M,
Boys,67.13,8,Josh Barlagna,Leonard,63.96,176.9,106.59,158.76,442.25,Single-ply,SBD,M,
Boys,67.13,9,Chase Compton,Alvord,64.5,165.56,88.45,167.83,421.84,Single-ply,SBD,M,
Boys,67.13,DQ,Arturo Parra,Chico,64.82,158.76,,,,Single-ply,SBD,M,
Boys,67.13,DQ,William Salsman,Nocona,66.81,,,,,Single-ply,SBD,M,
Boys,74.84,1,Wyatt Reeves,Paradise,73.3,226.8,149.69,235.87,612.35,Single-ply,SBD,M,
Boys,74.84,2,Matt Andresen,Alvord,74.39,215.46,127.01,199.58,542.04,Single-ply,SBD,M,
Boys,74.84,3,Keatyn Eitelman,Pottsboro,69.99,226.8,120.2,192.78,539.77,Single-ply,SBD,M,
Boys,74.84,4,Gage Moore,Sadler S & S Cons,73.8,181.44,124.74,208.65,514.83,Single-ply,SBD,M,
Boys,74.84,5,Joey Baggs,Sadler S & S Cons,72.48,199.58,106.59,201.85,508.02,Single-ply,SBD,M,
Boys,74.84,6,Brett Long,Van Alstyne,72.85,204.12,99.79,192.78,496.68,Single-ply,SBD,M,
Boys,74.84,7,Eliya Khajeie,Oakridge School,74.25,204.12,92.99,199.58,496.68,Single-ply,SBD,M,
Boys,74.84,8,Jett Millsop,Strawn,72.48,199.58,108.86,176.9,485.34,Single-ply,SBD,M,
Boys,74.84,9,Basey Mitchell,Millsap,67.77,197.31,90.72,185.97,474,Single-ply,SBD,M,
Boys,74.84,10,Esteban Ortiz,Bowie,72.76,161.03,111.13,192.78,464.93,Single-ply,SBD,M,
Boys,74.84,DQ,Julian Perez,Paradise,72.26,185.97,97.52,,,Single-ply,SBD,M,
Boys,74.84,DQ,Nathan Smith #12,Tioga,73.89,244.94,,,,Single-ply,SBD,M,
Boys,82.1,1,Dillon Inman,Boyd,81.33,260.82,165.56,226.8,653.17,Single-ply,SBD,M,
Boys,82.1,2,Seth Baucum,Callisburg,81.33,231.33,124.74,229.06,585.13,Single-ply,SBD,M,
Boys,82.1,3,Randall Hamilton,Jacksboro,79.65,233.6,133.81,215.46,582.87,Single-ply,SBD,M,
Boys,82.1,4,Jake Taylor,Van Alstyne,80.38,215.46,117.93,222.26,555.65,Single-ply,SBD,M,
Boys,82.1,5,Jake Holmes,Perrin-Whitt,79.97,181.44,124.74,224.53,530.7,Single-ply,SBD,M,
Boys,82.1,6,Bobby Copeland,Wichita Falls City View,81.06,215.46,104.33,210.92,530.7,Single-ply,SBD,M,
Boys,82.1,7,John Wheeler,Leonard,79.61,181.44,140.61,195.04,517.1,Single-ply,SBD,M,
Boys,82.1,8,Jesus Castillo,Bowie,79.2,199.58,129.27,181.44,510.29,Single-ply,SBD,M,
Boys,82.1,9,Tommy White,Paradise,79.38,199.58,99.79,201.85,501.22,Single-ply,SBD,M,
Boys,82.1,10,Cole Moore,Bells,80.78,183.7,113.4,204.12,501.22,Single-ply,SBD,M,
Boys,82.1,11,Dalton Doyle,Leonard,78.88,185.97,117.93,190.51,494.42,Single-ply,SBD,M,
Boys,82.1,DQ,Victor Martinez,Pilot Point,80.42,,,,,Single-ply,SBD,M,
Boys,89.81,1,Luke Porter,Bonham,88.59,272.16,165.56,244.94,682.66,Single-ply,SBD,M,
Boys,89.81,2,Aiden Straub,Bonham,88,254.01,149.69,247.21,650.91,Single-ply,SBD,M,
Boys,89.81,3,Drayden Lawson,Pilot Point,86.82,249.48,133.81,258.55,641.83,Single-ply,SBD,M,
Boys,89.81,4,Shane Davis,Whitewright,88.95,235.87,170.1,208.65,614.62,Single-ply,SBD,M,
Boys,89.81,5,Cameron Carroll,Ponder,86.27,213.19,151.95,226.8,591.94,Single-ply,SBD,M,
Boys,89.81,6,Garrett Kemp,Whitesboro,87.36,224.53,115.67,233.6,573.79,Single-ply,SBD,M,
Boys,89.81,7,Crafton Lindenborn,Wichita Falls City View,89.63,219.99,142.88,210.92,573.79,Single-ply,SBD,M,
Boys,89.81,8,Raul Hernandez,Howe,86.82,217.72,136.08,204.12,557.92,Single-ply,SBD,M,
Boys,89.81,9,Luis Hernandez,Collinsville,85.5,195.04,124.74,226.8,546.58,Single-ply,SBD,M,
Boys,89.81,10,Kody Kerr,Sadler S & S Cons,89.27,226.8,113.4,204.12,544.31,Single-ply,SBD,M,
Boys,89.81,11,Aldo Calvillo,Millsap,89.58,244.94,102.06,197.31,544.31,Single-ply,SBD,M,
Boys,89.81,12,Kaleb Graham,Tom Bean,83.51,204.12,113.4,204.12,521.63,Single-ply,SBD,M,
Boys,89.81,13,Carl Besario,Bells,82.96,195.04,102.06,185.97,483.08,Single-ply,SBD,M,
Boys,99.79,1,Markos Morales,Whitesboro,91.63,242.67,133.81,247.21,623.69,Single-ply,SBD,M,
Boys,99.79,2,Nick Taylor,Boyd,96.25,231.33,147.42,231.33,610.08,Single-ply,SBD,M,
Boys,99.79,3,Brandon Fangman,Pilot Point,99.34,242.67,163.29,204.12,610.08,Single-ply,SBD,M,
Boys,99.79,4,Jacob Ramos #2,Paradise,92.9,242.67,140.61,219.99,603.28,Single-ply,SBD,M,
Boys,99.79,5,Jordain Durham,Wichita Falls City View,94.57,238.14,127.01,215.46,580.6,Single-ply,SBD,M,
Boys,99.79,6,Ethan Clapp,Brock,93.17,226.8,124.74,226.8,578.33,Single-ply,SBD,M,
Boys,99.79,7,Lorenzo Garcia,Strawn,94.8,238.14,136.08,204.12,578.33,Single-ply,SBD,M,
Boys,99.79,8,Landon Nelson,Bells,90.22,229.06,124.74,217.72,571.53,Single-ply,SBD,M,
Boys,99.79,9,Edgar Aguilar,Sadler S & S Cons,91.81,204.12,140.61,222.26,566.99,Single-ply,SBD,M,
Boys,99.79,10,Ben Branam,Bells,93.49,204.12,138.35,204.12,546.58,Single-ply,SBD,M,
Boys,99.79,11,Caiden Vasquez,Jacksboro,91.76,226.8,113.4,197.31,537.51,Single-ply,SBD,M,
Boys,99.79,12,Jacob Kennedy,Bonham,91.13,192.78,122.47,185.97,501.22,Single-ply,SBD,M,
Boys,109.77,1,Kamron Rogers,Leonard,108.54,276.69,163.29,235.87,675.85,Single-ply,SBD,M,
Boys,109.77,2,Blake Peters,Bells,109.04,272.16,179.17,217.72,669.05,Single-ply,SBD,M,
Boys,109.77,3,Radley Hamm,Whitewright,102.78,274.42,163.29,219.99,657.71,Single-ply,SBD,M,
Boys,109.77,4,Ben Beggs,Pilot Point,107.77,272.16,131.54,229.06,632.76,Single-ply,SBD,M,
Boys,109.77,5,Carson Tinney,Paradise,106.23,242.67,136.08,210.92,589.67,Single-ply,SBD,M,
Boys,109.77,6,Carlos Castro,Nocona,101.97,235.87,133.81,208.65,578.33,Single-ply,SBD,M,
Boys,109.77,7,Zack Shivers,Brock,102.19,249.48,131.54,185.97,566.99,Single-ply,SBD,M,
Boys,109.77,8,Blake Boren,Callisburg,103.74,204.12,127.01,213.19,544.31,Single-ply,SBD,M,
Boys,109.77,9,Mason Hill,Wichita Falls City View,108.14,226.8,90.72,217.72,535.24,Single-ply,SBD,M,
Boys,109.77,DQ,Brandon Woods,Whitewright,104.05,256.28,154.22,,,Single-ply,SBD,M,
Boys,109.77,DQ,Conner Lynch,Pilot Point,107.64,272.16,,,,Single-ply,SBD,M,
Boys,109.77,DQ,Max Hopkins,Strawn,106.91,238.14,102.06,,,Single-ply,SBD,M,
Boys,124.74,1,Bartolo Guevara,Boyd,124.24,333.39,163.29,242.67,739.36,Single-ply,SBD,M,
Boys,124.74,2,Clayton Godwin,Paradise,116.3,272.16,185.97,249.48,707.6,Single-ply,SBD,M,
Boys,124.74,3,Austin Simmons,Strawn,112.49,249.48,120.2,238.14,607.81,Single-ply,SBD,M,
Boys,124.74,4,Coleton Price,Bowie,115.12,249.48,124.74,197.31,571.53,Single-ply,SBD,M,
Boys,124.74,5,William Fleming,Howe,124.06,233.6,124.74,199.58,557.92,Single-ply,SBD,M,
Boys,124.74,6,Bryan DeLeon,Ponder,120.07,247.21,133.81,174.63,555.65,Single-ply,SBD,M,
Boys,124.74,7,Reagan Spencer,Gunter,124.51,260.82,124.74,170.1,555.65,Single-ply,SBD,M,
Boys,124.74,8,Kaleb Crable,Alvord,115.48,238.14,127.01,188.24,553.38,Single-ply,SBD,M,
Boys,124.74,9,Dakota Herrington,Howe,119.29,226.8,124.74,192.78,544.31,Single-ply,SBD,M,
Boys,124.74,10,Camron Dandridge,Wichita Falls City View,110.9,215.46,149.69,172.37,537.51,Single-ply,SBD,M,
Boys,124.74,DQ,Carlos Winters,Nocona,111.22,210.92,131.54,,,Single-ply,SBD,M,
Boys,124.74,DQ,Ethan Thomas,Sadler S & S Cons,116.75,,,,,Single-ply,SBD,M,
Boys,124.74+,1,Scotty Straw,Bells,168.51,285.76,158.76,233.6,678.12,Single-ply,SBD,M,
Boys,124.74+,2,Drake Stephens #2,Bells,149.23,281.23,158.76,222.26,662.24,Single-ply,SBD,M,
Boys,124.74+,3,Elijah McFarland,Bonham,186.79,231.33,188.24,215.46,635.03,Single-ply,SBD,M,
Boys,124.74+,4,Brett Briscoe,Petrolia,148.73,272.16,142.88,204.12,619.15,Single-ply,SBD,M,
Boys,124.74+,5,Marc Anthony Gonzales,Whitewright,128.46,213.19,122.47,195.04,530.7,Single-ply,SBD,M,
Boys,124.74+,6,Wade Graves,Whitesboro,133.4,188.24,129.27,183.7,501.22,Single-ply,SBD,M,
Boys,124.74+,7,Ethan Moore,Valley View,148.87,204.12,113.4,183.7,501.22,Single-ply,SBD,M,
Boys,124.74+,8,Dayne Kelley,Sherman Texoma Christian School,125.06,204.12,124.74,158.76,487.61,Single-ply,SBD,M,
Boys,124.74+,DQ,Addison Crockett,Valley View,131.81,263.08,131.54,,,Single-ply,SBD,M,
Boys,124.74+,DQ,Jacob Scott,Pilot Point,150.59,226.8,,,,Single-ply,SBD,M,
Boys,124.74+,DQ,Tyson Herron,Bowie,158.39,219.99,154.22,,,Single-ply,SBD,M,
Boys,124.74+,DQ,Brady York,Nocona,140.61,,,,,Single-ply,SBD,M,
