Division,WeightClassKg,Place,Name,Team,BodyweightKg,Best3SquatKg,Best3BenchKg,Best3DeadliftKg,TotalKg,Equipment,Event,Sex,BirthDate
Boys,51.71,1,Tyler Morrow #1,Copperas Cove,49.8,172.37,97.52,188.24,458.13,Single-ply,SBD,M,
Boys,51.71,2,Erick Estrella,Brownsville Lopez,51.35,188.24,92.99,174.63,455.86,Single-ply,SBD,M,
Boys,51.71,3,Amari Crowder,Mansfield Timberview,51.35,158.76,79.38,172.37,410.5,Single-ply,SBD,M,
Boys,51.71,4,Ty Kirkbride,Denison,50.53,165.56,90.72,151.95,408.23,Single-ply,SBD,M,
Boys,51.71,5,Evan Ceja,Nederland,51.26,167.83,83.91,154.22,405.97,Single-ply,SBD,M,
Boys,51.71,6,Coal Aylesworth,Burleson Centennial,50.62,154.22,83.91,156.49,394.63,Single-ply,SBD,M,
Boys,51.71,7,Logan Williams #3,Nederland,51.17,151.95,81.65,158.76,392.36,Single-ply,SBD,M,
Boys,51.71,8,Jay Vasquez,Weslaco East,49.44,142.88,83.91,154.22,381.02,Single-ply,SBD,M,
Boys,51.71,9,Austin Reynolds,Royse City,51.17,149.69,79.38,136.08,365.14,Single-ply,SBD,M,
Boys,51.71,10,Malachi Flores,Plainview,47.81,129.27,63.5,138.35,331.12,Single-ply,SBD,M,
Boys,51.71,11,Jason Edwards,Midland,51.71,124.74,68.04,138.35,331.12,Single-ply,SBD,M,
Boys,51.71,12,Dillon Bobbit,Greenville,50.35,113.4,47.63,113.4,274.42,Single-ply,SBD,M,
Boys,55.79,1,Brayden Bromonsky,Kyle Lehman,54.34,229.06,106.59,229.06,564.72,Single-ply,SBD,M,
Boys,55.79,2,Richard Rodriguez,Edinburg,55.61,183.7,108.86,195.04,487.61,Single-ply,SBD,M,
Boys,55.79,3,Tommy Hession,College Station,54.25,199.58,97.52,188.24,485.34,Single-ply,SBD,M,
Boys,55.79,4,Zack Doyle,Royse City,55.7,190.51,102.06,181.44,474,Single-ply,SBD,M,
Boys,55.79,5,Fred Mares,Edinburg,55.07,154.22,115.67,185.97,455.86,Single-ply,SBD,M,
Boys,55.79,6,Jacob Cavness,Santa Fe,55.25,183.7,106.59,158.76,449.06,Single-ply,SBD,M,
Boys,55.79,7,Luis Garcia #9,Sharyland Pioneer,55.07,165.56,90.72,185.97,442.25,Single-ply,SBD,M,
Boys,55.79,8,Zach Rexin,Frisco Lebanon Trail,55.7,167.83,92.99,176.9,437.72,Single-ply,SBD,M,
Boys,55.79,9,Zuriell Garcia,Pharr Valley View,55.52,154.22,111.13,167.83,433.18,Single-ply,SBD,M,
Boys,55.79,10,Emmanuel Villagomez,Conroe Caney Creek,54.7,170.1,95.25,154.22,419.57,Single-ply,SBD,M,
Boys,55.79,11,Aaron Bohannan,Frisco Lone Star,55.61,170.1,86.18,163.29,419.57,Single-ply,SBD,M,
Boys,55.79,12,Santos Figueroa,Plainview,52.62,161.03,81.65,165.56,408.23,Single-ply,SBD,M,
Boys,55.79,DQ,Gianluca Figueroa,Carrollton Smith,52.8,158.76,97.52,,,Single-ply,SBD,M,
Boys,55.79,NS,Reece Gooding,Abilene Wylie,,,,,,Single-ply,SBD,M,
Boys,59.87,1,Jacob Vasquez #1,Kyle Lehman,58.97,235.87,108.86,240.4,585.13,Single-ply,SBD,M,
Boys,59.87,2,Isaac Estrada,Odessa,59.33,226.8,140.61,217.72,585.13,Single-ply,SBD,M,
Boys,59.87,3,Jorge Guajardo,Weslaco East,59.51,204.12,124.74,219.99,548.85,Single-ply,SBD,M,
Boys,59.87,4,Ramiro Yanez,PSJA,59.87,204.12,113.4,226.8,544.31,Single-ply,SBD,M,
Boys,59.87,5,Bryan Rodriguez,Greenville,57.33,215.46,117.93,192.78,526.17,Single-ply,SBD,M,
Boys,59.87,6,Ryan Nash,Frisco Reedy,59.15,201.85,111.13,197.31,510.29,Single-ply,SBD,M,
Boys,59.87,7,Juan Hernández #15,Sulphur Springs,59.69,197.31,92.99,219.99,510.29,Single-ply,SBD,M,
Boys,59.87,8,Juan Chavez,New Caney,59.6,185.97,124.74,195.04,505.76,Single-ply,SBD,M,
Boys,59.87,9,Cameron Yale,Magnolia,58.97,201.85,111.13,188.24,501.22,Single-ply,SBD,M,
Boys,59.87,10,James Duvall,Prosper,58.6,181.44,127.01,190.51,498.95,Single-ply,SBD,M,
Boys,59.87,11,Rolando Roldan,McAllen,59.51,197.31,111.13,185.97,494.42,Single-ply,SBD,M,
Boys,59.87,12,Paul Herrera,Floresville,58.97,170.1,102.06,188.24,460.4,Single-ply,SBD,M,
Boys,59.87,13,Seunghak Lee,Lubbock Cooper,59.15,161.03,92.99,188.24,442.25,Single-ply,SBD,M,
Boys,67.13,1,Hugo Rodriguez,McAllen,66.59,256.28,138.35,208.65,603.28,Single-ply,SBD,M,
Boys,67.13,2,Rogelio Barrera,Conroe,65.59,226.8,124.74,226.8,578.33,Single-ply,SBD,M,
Boys,67.13,3,Logan Hodges,Alvin,66.95,233.6,115.67,226.8,576.06,Single-ply,SBD,M,
Boys,67.13,4,Patricio Chavez,Mission Sharyland,63.59,219.99,131.54,222.26,573.79,Single-ply,SBD,M,
Boys,67.13,5,Daniel Gil,Conroe The Woodlands,65.95,213.19,138.35,219.99,571.53,Single-ply,SBD,M,
Boys,67.13,6,Jaryd Amaro,PSJA Memorial,65.77,226.8,117.93,217.72,562.45,Single-ply,SBD,M,
Boys,67.13,7,Diego Torres,Nederland,67.13,226.8,95.25,229.06,551.11,Single-ply,SBD,M,
Boys,67.13,8,Max Foster,Canyon Randall,63.41,181.44,104.33,226.8,512.56,Single-ply,SBD,M,
Boys,67.13,9,Alejandro Vasquez,Greenville,66.22,197.31,111.13,197.31,505.76,Single-ply,SBD,M,
Boys,67.13,10,Djonny Mukuna,Saginaw,65.95,174.63,108.86,213.19,496.68,Single-ply,SBD,M,
Boys,67.13,NS,Noel Whitehead,Richardson Lake Highlands,,,,,,Single-ply,SBD,M,
Boys,67.13,DQ,Nolan Carabajal,Lubbock Monterey,65.5,181.44,161.03,,,Single-ply,SBD,M,
Boys,67.13,DQ,Nolan Haden,Ennis,64.5,,,,,Single-ply,SBD,M,
Boys,67.13,DQ,Hunter Martin #2,Azle,65.32,,,,,Single-ply,SBD,M,
Boys,67.13,DQ,Michael Aguilar,San Antonio East Central,66.32,,,,,Single-ply,SBD,M,
Boys,74.84,1,Javier Pichardo,PSJA,74.12,297.1,161.03,254.01,712.14,Single-ply,SBD,M,
Boys,74.84,2,Jordan McKenzie #1,Midlothian,71.94,272.16,161.03,251.74,684.92,Single-ply,SBD,M,
Boys,74.84,3,Jonathan Cranford,Burleson,71.94,249.48,165.56,240.4,655.44,Single-ply,SBD,M,
Boys,74.84,4,Luis De Hoyos,Mission Veterans Memorial,74.57,258.55,133.81,233.6,625.96,Single-ply,SBD,M,
Boys,74.84,5,Noah Beach,Abilene Wylie,74.03,249.48,156.49,210.92,616.89,Single-ply,SBD,M,
Boys,74.84,6,Landon Thomas,Magnolia West,73.84,240.4,131.54,233.6,605.55,Single-ply,SBD,M,
Boys,74.84,7,Rolando Saenz,Mission Sharyland,74.21,242.67,140.61,222.26,605.55,Single-ply,SBD,M,
Boys,74.84,8,Jeremiah Wilton,Weatherford,73.84,226.8,145.15,217.72,589.67,Single-ply,SBD,M,
Boys,74.84,9,Aiden Peterson,Conroe The Woodlands,72.3,215.46,129.27,238.14,582.87,Single-ply,SBD,M,
Boys,74.84,10,Britton Despain,Little Elm,71.21,224.53,122.47,222.26,569.26,Single-ply,SBD,M,
Boys,74.84,11,Sam Mitchum,Royse City,73.39,215.46,122.47,226.8,564.72,Single-ply,SBD,M,
Boys,74.84,12,Greg Kalulu,Longview Pine Tree,74.21,199.58,104.33,235.87,539.77,Single-ply,SBD,M,
Boys,74.84,NS,Joel Scott #3,Abilene Wylie,,,,,,Single-ply,SBD,M,
Boys,82.1,1,Sergio Lerma,Weslaco,80.56,317.51,131.54,265.35,714.41,Single-ply,SBD,M,
Boys,82.1,2,Leo Uresti,Midland Lee,81.65,240.4,176.9,249.48,666.78,Single-ply,SBD,M,
Boys,82.1,3,Dagan Barela,Plainview,79.83,265.35,149.69,247.21,662.24,Single-ply,SBD,M,
Boys,82.1,4,Roman Anderson,Pflugerville Hendrickson,80.65,272.16,161.03,229.06,662.24,Single-ply,SBD,M,
Boys,82.1,5,Brayden Gardner,Ennis,79.29,265.35,172.37,222.26,659.98,Single-ply,SBD,M,
Boys,82.1,6,Robert Ortiz,Edinburg North,81.56,260.82,149.69,249.48,659.98,Single-ply,SBD,M,
Boys,82.1,7,John Leandro,Seguin,81.47,229.06,147.42,265.35,641.83,Single-ply,SBD,M,
Boys,82.1,8,John Bustos,Donna North,81.37,256.28,154.22,226.8,637.3,Single-ply,SBD,M,
Boys,82.1,9,Dylan Basham,San Marcos,80.2,233.6,156.49,233.6,623.69,Single-ply,SBD,M,
Boys,82.1,10,Carter Shell,Keller Timber Creek,81.01,251.74,158.76,208.65,619.15,Single-ply,SBD,M,
Boys,82.1,11,Cace Jones,Dickinson,81.1,244.94,113.4,244.94,603.28,Single-ply,SBD,M,
Boys,82.1,12,Alec Boyle,White Settlement Brewer,81.19,222.26,172.37,208.65,603.28,Single-ply,SBD,M,
Boys,82.1,13,Rodolfo Mayorquin,New Caney,80.74,222.26,149.69,226.8,598.74,Single-ply,SBD,M,
Boys,82.1,14,Joseph Garza,PSJA,80.83,249.48,115.67,226.8,591.94,Single-ply,SBD,M,
Boys,82.1,15,Matthew Mitchell,Sulphur Springs,79.92,226.8,138.35,219.99,585.13,Single-ply,SBD,M,
Boys,82.1,16,Ryan Carrillo #2,Sulphur Springs,82.1,229.06,149.69,199.58,578.33,Single-ply,SBD,M,
Boys,82.1,DQ,LaMarcus Owens,Manvel,81.56,244.94,145.15,,,Single-ply,SBD,M,
Boys,89.81,1,Slade Harris,Canyon Randall,87,310.71,217.72,303.91,832.34,Single-ply,SBD,M,
Boys,89.81,2,Kenny Long,Burleson Centennial,88.45,283.5,185.97,272.16,741.62,Single-ply,SBD,M,
Boys,89.81,3,Luis Trujillo,Elgin,88.63,263.08,174.63,294.84,732.55,Single-ply,SBD,M,
Boys,89.81,4,Jose Castelan,Brownsville Hanna,87,274.42,206.38,249.48,730.28,Single-ply,SBD,M,
Boys,89.81,5,Giancarlos Belteton,Greenville,88,299.37,201.85,229.06,730.28,Single-ply,SBD,M,
Boys,89.81,6,Anthony Elvir,Los Fresnos,89.09,265.35,174.63,274.42,714.41,Single-ply,SBD,M,
Boys,89.81,7,Ethan Nguyen,Mansfield Lake Ridge,88.09,283.5,163.29,249.48,696.26,Single-ply,SBD,M,
Boys,89.81,8,DeMonte Seymore,Manvel,87.54,272.16,156.49,263.08,691.73,Single-ply,SBD,M,
Boys,89.81,9,Alan Torres,Los Fresnos,88.99,263.08,151.95,242.67,657.71,Single-ply,SBD,M,
Boys,89.81,10,Luis Rivera,Los Fresnos,85.82,244.94,156.49,233.6,635.03,Single-ply,SBD,M,
Boys,89.81,11,Jacob Deax,Abilene Cooper,89.36,238.14,140.61,256.28,635.03,Single-ply,SBD,M,
Boys,89.81,12,Hayden Branson,Hallsville,86.64,238.14,151.95,226.8,616.89,Single-ply,SBD,M,
Boys,89.81,DQ,Diego Diaz,Frisco Memorial,88.72,,,,,Single-ply,SBD,M,
Boys,89.81,DQ,Josh Madrazo,Brownsville Veterans Memorial,89.45,240.4,147.42,,,Single-ply,SBD,M,
Boys,89.81,DQ,Nick Goedde,Katy Taylor,88.63,256.28,,,,Single-ply,SBD,M,
Boys,89.81,DQ,Caleb Robb,Royse City,88.36,,,,,Single-ply,SBD,M,
Boys,89.81,DQ,Micah Young,San Antonio Southside,87,,,,,Single-ply,SBD,M,
Boys,89.81,DQ,Adam Sawalha,Mansfield Lake Ridge,87.91,,,,,Single-ply,SBD,M,
Boys,99.79,1,Alberto Vargas,La Joya Palmview,96.8,297.1,204.12,276.69,777.91,Single-ply,SBD,M,
Boys,99.79,2,Micaiah Loop,Conroe,98.88,290.3,192.78,283.5,766.57,Single-ply,SBD,M,
Boys,99.79,3,Aidyn Schwarzer,Burleson,96.34,272.16,176.9,306.17,755.23,Single-ply,SBD,M,
Boys,99.79,4,Larry Strickland,Weslaco,89.99,306.17,156.49,290.3,752.96,Single-ply,SBD,M,
Boys,99.79,5,Luke Miles,College Station,98.34,283.5,154.22,288.03,725.75,Single-ply,SBD,M,
Boys,99.79,6,Hector Montes,Midland Lee,96.34,281.23,197.31,242.67,721.21,Single-ply,SBD,M,
Boys,99.79,7,Aidan Keith,Pflugerville Hendrickson,98.34,290.3,174.63,247.21,712.14,Single-ply,SBD,M,
Boys,99.79,8,Cirilo Gonzales,Manor,99.7,267.62,181.44,258.55,707.6,Single-ply,SBD,M,
Boys,99.79,9,Mathew Garza,Brownsville Rivera,93.89,274.42,158.76,267.62,700.8,Single-ply,SBD,M,
Boys,99.79,10,Tony Gandaria,Donna North,98.34,283.5,174.63,238.14,696.26,Single-ply,SBD,M,
Boys,99.79,11,Jarrett Austin,Burleson,96.98,272.16,149.69,263.08,684.92,Single-ply,SBD,M,
Boys,99.79,12,Daniel Seals,Weatherford,91.72,258.55,172.37,244.94,675.85,Single-ply,SBD,M,
Boys,99.79,13,Devlin Offutt,Lubbock Monterey,98.34,235.87,181.44,249.48,666.78,Single-ply,SBD,M,
Boys,99.79,14,Noah Martinez #6,Edinburg,92.71,272.16,142.88,235.87,650.91,Single-ply,SBD,M,
Boys,99.79,15,Zach Essih,Mansfield Timberview,91.35,263.08,136.08,249.48,648.64,Single-ply,SBD,M,
Boys,99.79,16,Caleb Bolay,Whitehouse,97.98,226.8,226.8,192.78,646.37,Single-ply,SBD,M,
Boys,99.79,17,Jason Pinder,Dickinson,97.52,247.21,147.42,247.21,641.83,Single-ply,SBD,M,
Boys,99.79,DQ,Jaylon Wyatt,Conroe Oak Ridge,98.61,,,,,Single-ply,SBD,M,
Boys,99.79,DQ,James Williams #16,Killeen Ellison,99.7,,,,,Single-ply,SBD,M,
Boys,99.79,DQ,Griffen Merillat,Royse City,98.25,,,,,Single-ply,SBD,M,
Boys,109.77,1,Gary Brooks,Odessa,108.23,369.68,192.78,260.82,823.27,Single-ply,SBD,M,
Boys,109.77,2,Logan Ecuyer,Conroe The Woodlands,103.06,303.91,197.31,294.84,796.05,Single-ply,SBD,M,
Boys,109.77,3,Fabian Martinez,Donna North,108.95,319.78,163.29,272.16,755.23,Single-ply,SBD,M,
Boys,109.77,4,Chancellor Buford,Alvin Shadow Creek,108.41,272.16,170.1,303.91,746.16,Single-ply,SBD,M,
Boys,109.77,5,Steven Pedraza,McAllen,108.68,274.42,185.97,269.89,730.28,Single-ply,SBD,M,
Boys,109.77,6,Oscar Sauceda,Brownsville Porter,105.14,281.23,170.1,269.89,721.21,Single-ply,SBD,M,
Boys,109.77,7,Zeke Sheridan,Killeen Ellison,102.24,278.96,145.15,263.08,687.19,Single-ply,SBD,M,
Boys,109.77,8,Riley Wrinkle,Weatherford,104.6,265.35,163.29,258.55,687.19,Single-ply,SBD,M,
Boys,109.77,9,Liam Huynh,Whitehouse,103.78,256.28,165.56,219.99,641.83,Single-ply,SBD,M,
Boys,109.77,10,Kolten Trevino,Granbury,108.41,267.62,161.03,213.19,641.83,Single-ply,SBD,M,
Boys,109.77,11,Mikel Delgado,Midland,106.68,240.4,158.76,219.99,619.15,Single-ply,SBD,M,
Boys,109.77,NS,David Omosigho,Crandall,,,,,,Single-ply,SBD,M,
Boys,109.77,NS,Ethan Tullos-Chapa,San Antonio Southwest Legacy,,,,,,Single-ply,SBD,M,
Boys,124.74,1,Jayden Conner,Weatherford,115.21,326.59,188.24,260.82,775.64,Single-ply,SBD,M,
Boys,124.74,2,Demondre Green,Mansfield Timberview,121.47,299.37,181.44,283.5,764.3,Single-ply,SBD,M,
Boys,124.74,3,Zeke Negrete,Weslaco East,121.38,285.76,204.12,260.82,750.7,Single-ply,SBD,M,
Boys,124.74,4,Isaac Alanis,Los Fresnos,123.74,294.84,185.97,260.82,741.62,Single-ply,SBD,M,
Boys,124.74,5,David Trevino,Alvin,122.65,306.17,161.03,272.16,739.36,Single-ply,SBD,M,
Boys,124.74,6,Alex Mendiola,McAllen Memorial,124.38,290.3,197.31,249.48,737.09,Single-ply,SBD,M,
Boys,124.74,7,Dylan Hughes,Alvin Shadow Creek,123.83,274.42,170.1,272.16,716.68,Single-ply,SBD,M,
Boys,124.74,8,Kaleb Thompkins,Midlothian,116.48,274.42,185.97,247.21,707.6,Single-ply,SBD,M,
Boys,124.74,9,Isiah Alexander,Marshall,121.47,281.23,154.22,258.55,694,Single-ply,SBD,M,
Boys,124.74,10,Josh Rodriguez,Cleburne,117.3,254.01,181.44,256.28,691.73,Single-ply,SBD,M,
Boys,124.74,11,Jaxon Lunsford,Abilene Wylie,113.13,272.16,158.76,249.48,680.39,Single-ply,SBD,M,
Boys,124.74,12,Rod Brown,North Forney,122.56,274.42,165.56,238.14,678.12,Single-ply,SBD,M,
Boys,124.74,13,Bradley Byrne,Abilene,112.67,274.42,124.74,235.87,635.03,Single-ply,SBD,M,
Boys,139.71,1,Jordan Hood,Elgin,137.8,331.12,210.92,319.78,861.83,Single-ply,SBD,M,
Boys,139.71,2,Kevin Lopez,PSJA Memorial,138.25,351.53,215.46,272.16,839.15,Single-ply,SBD,M,
Boys,139.71,3,Daniel Bueno,Greenville,128.73,317.51,165.56,292.57,775.64,Single-ply,SBD,M,
Boys,139.71,4,X'zavier Collins,Abilene Wylie,134.35,294.84,183.7,285.76,764.3,Single-ply,SBD,M,
Boys,139.71,5,Alex Rodriguez #16,Greenville,137.17,312.98,185.97,247.21,746.16,Single-ply,SBD,M,
Boys,139.71,6,Caleb Davis,Harlingen South,138.07,297.1,185.97,249.48,732.55,Single-ply,SBD,M,
Boys,139.71,7,Zach Rogers,Willis,135.26,285.76,156.49,265.35,707.6,Single-ply,SBD,M,
Boys,139.71,8,Armani Cathey,Mansfield Timberview,127.01,297.1,163.29,240.4,700.8,Single-ply,SBD,M,
Boys,139.71,9,Caden Barnett,Justin Northwest,129.46,267.62,142.88,278.96,689.46,Single-ply,SBD,M,
Boys,139.71,10,Tristen Nabors,Santa Fe,128.82,278.96,172.37,229.06,680.39,Single-ply,SBD,M,
Boys,139.71,11,Marc Herrera,Lubbock,138.35,272.16,154.22,235.87,662.24,Single-ply,SBD,M,
Boys,139.71,DQ,Ty Thornton,Manor,133.63,,,,,Single-ply,SBD,M,
Boys,139.71+,1,Kah'Lil Montague,Tyler Legacy,163.47,340.19,265.35,249.48,855.02,Single-ply,SBD,M,
Boys,139.71+,2,Josh Rangel,Cleburne,151.59,344.73,197.31,274.42,816.47,Single-ply,SBD,M,
Boys,139.71+,3,Cade Crawford,Forney,162.84,367.41,201.85,240.4,809.66,Single-ply,SBD,M,
Boys,139.71+,4,Marcos De Ochoa,McAllen Memorial,142.61,328.85,183.7,272.16,784.71,Single-ply,SBD,M,
Boys,139.71+,5,Genaro Paez,Edinburg,154.49,303.91,183.7,260.82,748.43,Single-ply,SBD,M,
Boys,139.71+,6,Emelio Dominguez,Odessa,140.61,308.44,192.78,244.94,746.16,Single-ply,SBD,M,
Boys,139.71+,7,Thomas Holman,Copperas Cove,161.93,285.76,190.51,251.74,728.02,Single-ply,SBD,M,
Boys,139.71+,8,John Martinez-Guedry,Midland,153.4,281.23,190.51,254.01,725.75,Single-ply,SBD,M,
Boys,139.71+,9,Cole Hilliard,Azle,164.56,297.1,165.56,249.48,712.14,Single-ply,SBD,M,
Boys,139.71+,10,Josiah Mason,Dickinson,145.88,272.16,176.9,226.8,675.85,Single-ply,SBD,M,
Boys,139.71+,11,Heston Edwards,Northwest Eaton,143.61,242.67,149.69,226.8,619.15,Single-ply,SBD,M,
Boys,139.71+,DQ,Matthew Gaudern,Conroe Oak Ridge,154.95,,,,,Single-ply,SBD,M,
